1 ano/2 Semestre/LSD/Pratico/Prat03/Parte 1/simulation/qsim/AdderDemo.msim.vcd
$comment
	File created using the following command:
		vcd file AdderDemo.msim.vcd -direction
$end
$date
	Tue Mar 12 19:05:50 2024
$end
$version
	Questa Intel Starter FPGA Edition Version 2023.3
$end
$timescale
	1ps
$end

$scope module adderdemo_vhd_vec_tst $end
$var wire 1 ! KEY [0] $end
$var wire 1 " LEDR [14] $end
$var wire 1 # LEDR [13] $end
$var wire 1 $ LEDR [12] $end
$var wire 1 % LEDR [11] $end
$var wire 1 & LEDR [10] $end
$var wire 1 ' LEDR [9] $end
$var wire 1 ( LEDR [8] $end
$var wire 1 ) LEDR [7] $end
$var wire 1 * LEDR [6] $end
$var wire 1 + LEDR [5] $end
$var wire 1 , LEDR [4] $end
$var wire 1 - LEDR [3] $end
$var wire 1 . LEDR [2] $end
$var wire 1 / LEDR [1] $end
$var wire 1 0 LEDR [0] $end
$var wire 1 1 SW [17] $end
$var wire 1 2 SW [16] $end
$var wire 1 3 SW [15] $end
$var wire 1 4 SW [14] $end
$var wire 1 5 SW [13] $end
$var wire 1 6 SW [12] $end
$var wire 1 7 SW [11] $end
$var wire 1 8 SW [10] $end
$var wire 1 9 SW [9] $end
$var wire 1 : SW [8] $end
$var wire 1 ; SW [7] $end
$var wire 1 < SW [6] $end
$var wire 1 = SW [5] $end
$var wire 1 > SW [4] $end
$var wire 1 ? SW [3] $end
$var wire 1 @ SW [2] $end
$var wire 1 A SW [1] $end
$var wire 1 B SW [0] $end

$scope module i1 $end
$var wire 1 C gnd $end
$var wire 1 D vcc $end
$var wire 1 E unknown $end
$var wire 1 F devoe $end
$var wire 1 G devclrn $end
$var wire 1 H devpor $end
$var wire 1 I ww_devoe $end
$var wire 1 J ww_devclrn $end
$var wire 1 K ww_devpor $end
$var wire 1 L ww_LEDR [14] $end
$var wire 1 M ww_LEDR [13] $end
$var wire 1 N ww_LEDR [12] $end
$var wire 1 O ww_LEDR [11] $end
$var wire 1 P ww_LEDR [10] $end
$var wire 1 Q ww_LEDR [9] $end
$var wire 1 R ww_LEDR [8] $end
$var wire 1 S ww_LEDR [7] $end
$var wire 1 T ww_LEDR [6] $end
$var wire 1 U ww_LEDR [5] $end
$var wire 1 V ww_LEDR [4] $end
$var wire 1 W ww_LEDR [3] $end
$var wire 1 X ww_LEDR [2] $end
$var wire 1 Y ww_LEDR [1] $end
$var wire 1 Z ww_LEDR [0] $end
$var wire 1 [ ww_SW [17] $end
$var wire 1 \ ww_SW [16] $end
$var wire 1 ] ww_SW [15] $end
$var wire 1 ^ ww_SW [14] $end
$var wire 1 _ ww_SW [13] $end
$var wire 1 ` ww_SW [12] $end
$var wire 1 a ww_SW [11] $end
$var wire 1 b ww_SW [10] $end
$var wire 1 c ww_SW [9] $end
$var wire 1 d ww_SW [8] $end
$var wire 1 e ww_SW [7] $end
$var wire 1 f ww_SW [6] $end
$var wire 1 g ww_SW [5] $end
$var wire 1 h ww_SW [4] $end
$var wire 1 i ww_SW [3] $end
$var wire 1 j ww_SW [2] $end
$var wire 1 k ww_SW [1] $end
$var wire 1 l ww_SW [0] $end
$var wire 1 m ww_KEY [0] $end
$var wire 1 n \SW[9]~input_o\ $end
$var wire 1 o \SW[8]~input_o\ $end
$var wire 1 p \LEDR[14]~output_o\ $end
$var wire 1 q \LEDR[13]~output_o\ $end
$var wire 1 r \LEDR[12]~output_o\ $end
$var wire 1 s \LEDR[11]~output_o\ $end
$var wire 1 t \LEDR[10]~output_o\ $end
$var wire 1 u \LEDR[9]~output_o\ $end
$var wire 1 v \LEDR[8]~output_o\ $end
$var wire 1 w \LEDR[7]~output_o\ $end
$var wire 1 x \LEDR[6]~output_o\ $end
$var wire 1 y \LEDR[5]~output_o\ $end
$var wire 1 z \LEDR[4]~output_o\ $end
$var wire 1 { \LEDR[3]~output_o\ $end
$var wire 1 | \LEDR[2]~output_o\ $end
$var wire 1 } \LEDR[1]~output_o\ $end
$var wire 1 ~ \LEDR[0]~output_o\ $end
$var wire 1 !! \KEY[0]~input_o\ $end
$var wire 1 "! \SW[13]~input_o\ $end
$var wire 1 #! \SW[12]~input_o\ $end
$var wire 1 $! \SW[11]~input_o\ $end
$var wire 1 %! \SW[14]~input_o\ $end
$var wire 1 &! \SW[10]~input_o\ $end
$var wire 1 '! \inst1|addsub|bit0|cout~0_combout\ $end
$var wire 1 (! \SW[15]~input_o\ $end
$var wire 1 )! \inst1|addsub|bit1|cout~0_combout\ $end
$var wire 1 *! \SW[16]~input_o\ $end
$var wire 1 +! \inst1|addsub|bit2|cout~0_combout\ $end
$var wire 1 ,! \SW[17]~input_o\ $end
$var wire 1 -! \inst1|addsub|bit3|cout~0_combout\ $end
$var wire 1 .! \inst1|addsub|bit3|s~0_combout\ $end
$var wire 1 /! \inst1|addsub|bit2|s~0_combout\ $end
$var wire 1 0! \inst1|addsub|bit1|s~combout\ $end
$var wire 1 1! \inst1|addsub|bit0|s~0_combout\ $end
$var wire 1 2! \SW[7]~input_o\ $end
$var wire 1 3! \SW[3]~input_o\ $end
$var wire 1 4! \SW[6]~input_o\ $end
$var wire 1 5! \SW[2]~input_o\ $end
$var wire 1 6! \SW[0]~input_o\ $end
$var wire 1 7! \SW[4]~input_o\ $end
$var wire 1 8! \SW[1]~input_o\ $end
$var wire 1 9! \SW[5]~input_o\ $end
$var wire 1 :! \inst|bit1|cout~0_combout\ $end
$var wire 1 ;! \inst|bit2|cout~0_combout\ $end
$var wire 1 <! \inst|bit3|cout~0_combout\ $end
$var wire 1 =! \inst|bit3|s~combout\ $end
$var wire 1 >! \inst|bit2|s~0_combout\ $end
$var wire 1 ?! \inst|bit1|s~0_combout\ $end
$var wire 1 @! \inst|bit0|s~combout\ $end
$upscope $end
$upscope $end
$enddefinitions $end
#0
$dumpvars
0C
1D
xE
1F
1G
1H
1I
1J
1K
xn
xo
xp
xq
xr
xs
0t
0u
0v
0w
0x
0y
0z
0{
0|
0}
0~
x!!
0"!
0#!
0$!
0%!
0&!
x'!
0(!
x)!
0*!
x+!
0,!
x-!
x.!
x/!
x0!
01!
02!
03!
04!
05!
06!
07!
08!
09!
0:!
0;!
0<!
0=!
0>!
0?!
0@!
01
02
03
04
05
06
07
08
x9
x:
0;
0<
0=
0>
0?
0@
0A
0B
0[
0\
0]
0^
0_
0`
0a
0b
xc
xd
0e
0f
0g
0h
0i
0j
0k
0l
xm
x!
x"
x#
x$
x%
0&
0'
0(
0)
0*
0+
0,
0-
0.
0/
00
xL
xM
xN
xO
0P
0Q
0R
0S
0T
0U
0V
0W
0X
0Y
0Z
$end
#10000
18
1b
1&!
0'!
11!
0)!
0+!
1t
0-!
1P
1&
0p
0L
0"
#20000
08
14
17
1?
1i
0b
1a
1^
1%!
1$!
0&!
13!
1=!
x'!
x)!
x+!
1{
x-!
1W
1-
xp
xL
x"
#30000
18
1b
1&!
1'!
01!
0t
0P
0&
#40000
08
04
07
0?
13
16
1>
1@
1j
0i
1h
0b
0a
1`
0^
1]
1(!
0%!
1#!
0$!
0&!
17!
03!
15!
1>!
0=!
1@!
x'!
1)!
x)!
1~
0{
1|
1Z
0W
1X
10
1.
0-
#50000
18
1b
1&!
0'!
11!
1t
1P
1&
#60000
08
14
17
1?
1i
0b
1a
1^
1%!
1$!
0&!
13!
1=!
x'!
1{
1W
1-
#70000
18
1b
1&!
1'!
01!
1)!
0t
0P
0&
#80000
08
04
07
0?
03
06
0>
0@
12
15
1=
1A
1k
0j
0i
0h
1g
0b
0a
0`
1_
0^
0]
1\
1*!
0(!
0%!
1"!
0#!
0$!
0&!
19!
07!
03!
05!
18!
0>!
0=!
0@!
1:!
x'!
x)!
1+!
x+!
1>!
0~
0{
0|
0Z
0W
0X
1|
00
0.
0-
1X
1.
#90000
18
1b
1&!
0'!
11!
0)!
1t
1P
1&
#100000
08
14
17
1?
1i
0b
1a
1^
1%!
1$!
0&!
13!
1=!
x'!
x)!
1{
1W
1-
#110000
18
1b
1&!
1'!
01!
0t
0P
0&
#120000
08
04
07
0?
13
16
1>
1@
1j
0i
1h
0b
0a
1`
0^
1]
1(!
0%!
1#!
0$!
0&!
17!
03!
15!
1;!
0>!
0=!
1@!
x'!
1)!
1+!
x)!
1=!
x+!
1~
0{
0|
1Z
0W
0X
1{
10
0.
0-
1W
1-
#130000
18
1b
1&!
0'!
11!
1t
1P
1&
#140000
08
14
17
1?
1i
0b
1a
1^
1%!
1$!
0&!
13!
1<!
0=!
x'!
0{
1z
0W
1V
0-
1,
#150000
18
1b
1&!
1'!
01!
1)!
1+!
0t
0P
0&
#160000
08
04
07
0?
03
06
0>
0@
02
05
0=
0A
11
1<
1B
1l
0k
0j
0i
0h
0g
1f
0b
0a
0`
0_
0^
0]
0\
1[
1,!
0*!
0(!
0%!
0"!
0#!
0$!
0&!
14!
09!
07!
03!
05!
08!
16!
0<!
1=!
0:!
x'!
x)!
x+!
1-!
x-!
0;!
1>!
0=!
1p
1{
0z
1L
1W
0V
1|
xp
1-
0,
1"
1X
xL
0{
1.
x"
0W
0-
#170000
18
1b
1&!
0'!
11!
0)!
0+!
1t
1P
1&
#180000
08
14
17
1?
1i
0b
1a
1^
1%!
1$!
0&!
13!
1=!
x'!
x)!
x+!
1{
1W
1-
#190000
18
1b
1&!
1'!
01!
0t
0P
0&
#200000
08
04
07
0?
13
16
1>
1@
1j
0i
1h
0b
0a
1`
0^
1]
1(!
0%!
1#!
0$!
0&!
17!
03!
15!
1;!
0>!
0=!
1?!
0@!
x'!
1)!
x)!
1=!
0~
1}
0{
0|
0Z
1Y
0W
0X
1{
00
1/
0.
0-
1W
1-
#210000
18
1b
1&!
0'!
11!
1t
1P
1&
#220000
08
14
17
1?
1i
0b
1a
1^
1%!
1$!
0&!
13!
1<!
0=!
x'!
0{
1z
0W
1V
0-
1,
#230000
18
1b
1&!
1'!
01!
1)!
0t
0P
0&
#240000
08
04
07
0?
03
06
0>
0@
12
15
1=
1A
1k
0j
0i
0h
1g
0b
0a
0`
1_
0^
0]
1\
1*!
0(!
0%!
1"!
0#!
0$!
0&!
19!
07!
03!
05!
18!
0;!
1>!
0<!
1=!
1@!
1:!
0?!
x'!
x)!
1+!
1-!
x+!
1;!
0>!
0=!
1=!
x-!
0}
1~
1{
0z
1|
0Y
1Z
1W
0V
1X
0{
0|
1p
10
0/
1.
1-
0,
0W
0X
1L
xp
1{
0.
0-
1"
xL
1W
1-
x"
#250000
18
1b
1&!
0'!
11!
0)!
1t
1P
1&
#260000
08
14
17
1?
1i
0b
1a
1^
1%!
1$!
0&!
13!
1<!
0=!
x'!
x)!
0{
1z
0W
1V
0-
1,
#270000
18
1b
1&!
1'!
01!
0t
0P
0&
#280000
08
04
07
0?
13
16
1>
1@
1j
0i
1h
0b
0a
1`
0^
1]
1(!
0%!
1#!
0$!
0&!
17!
03!
15!
1>!
0<!
1=!
1?!
0@!
x'!
1)!
1+!
x)!
x+!
1-!
0~
1}
1{
0z
1|
x-!
0Z
1Y
1W
0V
1X
00
1/
1.
1-
0,
1p
1L
xp
1"
xL
x"
#290000
18
1b
1&!
0'!
11!
1t
1P
1&
#300000
08
14
17
1?
1i
0b
1a
1^
1%!
1$!
0&!
13!
1<!
0=!
x'!
0{
1z
0W
1V
0-
1,
#310000
18
1b
1&!
1'!
01!
1)!
1+!
0t
1-!
0P
0&
1p
1L
1"
#320000
08
04
07
0?
03
06
0>
0@
02
05
0=
0A
01
0<
0B
1;
0l
0k
0j
0i
0h
0g
0f
1e
0b
0a
0`
0_
0^
0]
0\
0[
0,!
0*!
0(!
0%!
0"!
0#!
0$!
0&!
12!
04!
09!
07!
03!
05!
08!
06!
0:!
0?!
0;!
x'!
x)!
x+!
x-!
0<!
1=!
0>!
xp
0}
xL
0Y
0|
1{
0z
0/
x"
0X
1W
0V
0.
1-
0,
#330000
18
1b
1&!
0'!
11!
0)!
0+!
1t
0-!
1P
1&
0p
0L
0"
#340000
08
14
17
1?
1i
0b
1a
1^
1%!
1$!
0&!
13!
1<!
0=!
x'!
x)!
x+!
0{
1z
x-!
0W
1V
0-
1,
xp
xL
x"
#350000
18
1b
1&!
1'!
01!
0t
0P
0&
#360000
08
04
07
0?
13
16
1>
1@
1j
0i
1h
0b
0a
1`
0^
1]
1(!
0%!
1#!
0$!
0&!
17!
03!
15!
1>!
0<!
1=!
1@!
x'!
1)!
x)!
1~
1{
0z
1|
1Z
1W
0V
1X
10
1.
1-
0,
#370000
18
1b
1&!
0'!
11!
1t
1P
1&
#380000
08
14
17
1?
1i
0b
1a
1^
1%!
1$!
0&!
13!
1<!
0=!
x'!
0{
1z
0W
1V
0-
1,
#390000
18
1b
1&!
1'!
01!
1)!
0t
0P
0&
#400000
08
04
07
0?
03
06
0>
0@
12
15
1=
1A
1k
0j
0i
0h
1g
0b
0a
0`
1_
0^
0]
1\
1*!
0(!
0%!
1"!
0#!
0$!
0&!
19!
07!
03!
05!
18!
0>!
0<!
1=!
0@!
1:!
x'!
x)!
1+!
x+!
1>!
0~
1{
0z
0|
0Z
1W
0V
0X
1|
00
0.
1-
0,
1X
1.
#410000
18
1b
1&!
0'!
11!
0)!
1t
1P
1&
#420000
08
14
17
1?
1i
0b
1a
1^
1%!
1$!
0&!
13!
1<!
0=!
x'!
x)!
0{
1z
0W
1V
0-
1,
#430000
18
1b
1&!
1'!
01!
0t
0P
0&
#440000
08
04
07
0?
13
16
1>
1@
1j
0i
1h
0b
0a
1`
0^
1]
1(!
0%!
1#!
0$!
0&!
17!
03!
15!
1;!
0>!
0<!
1=!
1@!
x'!
1)!
1+!
x)!
1<!
0=!
x+!
1~
1{
0z
0|
1Z
1W
0V
0X
0{
1z
10
0.
1-
0,
0W
1V
0-
1,
#450000
18
1b
1&!
0'!
11!
1t
1P
1&
#460000
08
14
17
1?
1i
0b
1a
1^
1%!
1$!
0&!
13!
1=!
x'!
1{
1W
1-
#470000
18
1b
1&!
1'!
01!
1)!
1+!
0t
0P
0&
#480000
08
04
07
0?
03
06
0>
0@
02
05
0=
0A
11
1<
1B
1l
0k
0j
0i
0h
0g
1f
0b
0a
0`
0_
0^
0]
0\
1[
1,!
0*!
0(!
0%!
0"!
0#!
0$!
0&!
14!
09!
07!
03!
05!
08!
16!
0=!
0:!
x'!
x)!
x+!
1-!
x-!
0;!
1>!
0<!
1=!
1p
0{
1L
0W
1|
xp
0-
1"
1X
xL
1{
0z
1.
x"
1W
0V
1-
0,
#490000
18
1b
1&!
0'!
11!
0)!
0+!
1t
1P
1&
#500000
08
14
17
1?
1i
0b
1a
1^
1%!
1$!
0&!
13!
1<!
0=!
x'!
x)!
x+!
0{
1z
0W
1V
0-
1,
#510000
18
1b
1&!
1'!
01!
0t
0P
0&
#520000
08
04
07
0?
13
16
1>
1@
1j
0i
1h
0b
0a
1`
0^
1]
1(!
0%!
1#!
0$!
0&!
17!
03!
15!
1;!
0>!
0<!
1=!
1?!
0@!
x'!
1)!
x)!
1<!
0=!
0~
1}
1{
0z
0|
0Z
1Y
1W
0V
0X
0{
1z
00
1/
0.
1-
0,
0W
1V
0-
1,
#530000
18
1b
1&!
0'!
11!
1t
1P
1&
#540000
08
14
17
1?
1i
0b
1a
1^
1%!
1$!
0&!
13!
1=!
x'!
1{
1W
1-
#550000
18
1b
1&!
1'!
01!
1)!
0t
0P
0&
#560000
08
04
07
0?
03
06
0>
0@
12
15
1=
1A
1k
0j
0i
0h
1g
0b
0a
0`
1_
0^
0]
1\
1*!
0(!
0%!
1"!
0#!
0$!
0&!
19!
07!
03!
05!
18!
0;!
1>!
0=!
1@!
1:!
0?!
x'!
x)!
1+!
1-!
x+!
1;!
0>!
0<!
1=!
1<!
0=!
x-!
0}
1~
0{
1|
0Y
1Z
0W
1X
1{
0z
0|
1p
10
0/
1.
0-
1W
0V
0X
1L
xp
0{
1z
0.
1-
0,
1"
xL
0W
1V
0-
1,
x"
#570000
18
1b
1&!
0'!
11!
0)!
1t
1P
1&
#580000
08
14
17
1?
1i
0b
1a
1^
1%!
1$!
0&!
13!
1=!
x'!
x)!
1{
1W
1-
#590000
18
1b
1&!
1'!
01!
0t
0P
0&
#600000
08
04
07
0?
13
16
1>
1@
1j
0i
1h
0b
0a
1`
0^
1]
1(!
0%!
1#!
0$!
0&!
17!
03!
15!
1>!
0=!
1?!
0@!
x'!
1)!
1+!
x)!
x+!
1-!
0~
1}
0{
1|
x-!
0Z
1Y
0W
1X
00
1/
1.
0-
1p
1L
xp
1"
xL
x"
#610000
18
1b
1&!
0'!
11!
1t
1P
1&
#620000
08
14
17
1?
1i
0b
1a
1^
1%!
1$!
0&!
13!
1=!
x'!
1{
1W
1-
#630000
18
1b
1&!
1'!
01!
1)!
1+!
0t
1-!
0P
0&
1p
1L
1"
#640000
08
04
07
0?
03
06
0>
0@
02
05
0=
0A
01
0<
0B
0;
0l
0k
0j
0i
0h
0g
0f
0e
0b
0a
0`
0_
0^
0]
0\
0[
0,!
0*!
0(!
0%!
0"!
0#!
0$!
0&!
02!
04!
09!
07!
03!
05!
08!
06!
0:!
0?!
0;!
0<!
x'!
x)!
x+!
x-!
0=!
0>!
xp
0z
0}
xL
0V
0Y
0|
0{
0/
0,
x"
0X
0W
0.
0-
#650000
18
1b
1&!
0'!
11!
0)!
0+!
1t
0-!
1P
1&
0p
0L
0"
#660000
08
14
17
1?
1i
0b
1a
1^
1%!
1$!
0&!
13!
1=!
x'!
x)!
x+!
1{
x-!
1W
1-
xp
xL
x"
#670000
18
1b
1&!
1'!
01!
0t
0P
0&
#680000
08
04
07
0?
13
16
1>
1@
1j
0i
1h
0b
0a
1`
0^
1]
1(!
0%!
1#!
0$!
0&!
17!
03!
15!
1>!
0=!
1@!
x'!
1)!
x)!
1~
0{
1|
1Z
0W
1X
10
1.
0-
#690000
18
1b
1&!
0'!
11!
1t
1P
1&
#700000
08
14
17
1?
1i
0b
1a
1^
1%!
1$!
0&!
13!
1=!
x'!
1{
1W
1-
#710000
18
1b
1&!
1'!
01!
1)!
0t
0P
0&
#720000
08
04
07
0?
03
06
0>
0@
12
15
1=
1A
1k
0j
0i
0h
1g
0b
0a
0`
1_
0^
0]
1\
1*!
0(!
0%!
1"!
0#!
0$!
0&!
19!
07!
03!
05!
18!
0>!
0=!
0@!
1:!
x'!
x)!
1+!
x+!
1>!
0~
0{
0|
0Z
0W
0X
1|
00
0.
0-
1X
1.
#730000
18
1b
1&!
0'!
11!
0)!
1t
1P
1&
#740000
08
14
17
1?
1i
0b
1a
1^
1%!
1$!
0&!
13!
1=!
x'!
x)!
1{
1W
1-
#750000
18
1b
1&!
1'!
01!
0t
0P
0&
#760000
08
04
07
0?
13
16
1>
1@
1j
0i
1h
0b
0a
1`
0^
1]
1(!
0%!
1#!
0$!
0&!
17!
03!
15!
1;!
0>!
0=!
1@!
x'!
1)!
1+!
x)!
1=!
x+!
1~
0{
0|
1Z
0W
0X
1{
10
0.
0-
1W
1-
#770000
18
1b
1&!
0'!
11!
1t
1P
1&
#780000
08
14
17
1?
1i
0b
1a
1^
1%!
1$!
0&!
13!
1<!
0=!
x'!
0{
1z
0W
1V
0-
1,
#790000
18
1b
1&!
1'!
01!
1)!
1+!
0t
0P
0&
#800000
08
04
07
0?
03
06
0>
0@
02
05
0=
0A
11
1<
1B
1l
0k
0j
0i
0h
0g
1f
0b
0a
0`
0_
0^
0]
0\
1[
1,!
0*!
0(!
0%!
0"!
0#!
0$!
0&!
14!
09!
07!
03!
05!
08!
16!
0<!
1=!
0:!
x'!
x)!
x+!
1-!
x-!
0;!
1>!
0=!
1p
1{
0z
1L
1W
0V
1|
xp
1-
0,
1"
1X
xL
0{
1.
x"
0W
0-
#810000
18
1b
1&!
0'!
11!
0)!
0+!
1t
1P
1&
#820000
08
14
17
1?
1i
0b
1a
1^
1%!
1$!
0&!
13!
1=!
x'!
x)!
x+!
1{
1W
1-
#830000
18
1b
1&!
1'!
01!
0t
0P
0&
#840000
08
04
07
0?
13
16
1>
1@
1j
0i
1h
0b
0a
1`
0^
1]
1(!
0%!
1#!
0$!
0&!
17!
03!
15!
1;!
0>!
0=!
1?!
0@!
x'!
1)!
x)!
1=!
0~
1}
0{
0|
0Z
1Y
0W
0X
1{
00
1/
0.
0-
1W
1-
#850000
18
1b
1&!
0'!
11!
1t
1P
1&
#860000
08
14
17
1?
1i
0b
1a
1^
1%!
1$!
0&!
13!
1<!
0=!
x'!
0{
1z
0W
1V
0-
1,
#870000
18
1b
1&!
1'!
01!
1)!
0t
0P
0&
#880000
08
04
07
0?
03
06
0>
0@
12
15
1=
1A
1k
0j
0i
0h
1g
0b
0a
0`
1_
0^
0]
1\
1*!
0(!
0%!
1"!
0#!
0$!
0&!
19!
07!
03!
05!
18!
0;!
1>!
0<!
1=!
1@!
1:!
0?!
x'!
x)!
1+!
1-!
x+!
1;!
0>!
0=!
1=!
x-!
0}
1~
1{
0z
1|
0Y
1Z
1W
0V
1X
0{
0|
1p
10
0/
1.
1-
0,
0W
0X
1L
xp
1{
0.
0-
1"
xL
1W
1-
x"
#890000
18
1b
1&!
0'!
11!
0)!
1t
1P
1&
#900000
08
14
17
1?
1i
0b
1a
1^
1%!
1$!
0&!
13!
1<!
0=!
x'!
x)!
0{
1z
0W
1V
0-
1,
#910000
18
1b
1&!
1'!
01!
0t
0P
0&
#920000
08
04
07
0?
13
16
1>
1@
1j
0i
1h
0b
0a
1`
0^
1]
1(!
0%!
1#!
0$!
0&!
17!
03!
15!
1>!
0<!
1=!
1?!
0@!
x'!
1)!
1+!
x)!
x+!
1-!
0~
1}
1{
0z
1|
x-!
0Z
1Y
1W
0V
1X
00
1/
1.
1-
0,
1p
1L
xp
1"
xL
x"
#930000
18
1b
1&!
0'!
11!
1t
1P
1&
#940000
08
14
17
1?
1i
0b
1a
1^
1%!
1$!
0&!
13!
1<!
0=!
x'!
0{
1z
0W
1V
0-
1,
#950000
18
1b
1&!
1'!
01!
1)!
1+!
0t
1-!
0P
0&
1p
1L
1"
#960000
08
04
07
0?
03
06
0>
0@
02
05
0=
0A
01
0<
0B
1;
0l
0k
0j
0i
0h
0g
0f
1e
0b
0a
0`
0_
0^
0]
0\
0[
0,!
0*!
0(!
0%!
0"!
0#!
0$!
0&!
12!
04!
09!
07!
03!
05!
08!
06!
0:!
0?!
0;!
x'!
x)!
x+!
x-!
0<!
1=!
0>!
xp
0}
xL
0Y
0|
1{
0z
0/
x"
0X
1W
0V
0.
1-
0,
#970000
18
1b
1&!
0'!
11!
0)!
0+!
1t
0-!
1P
1&
0p
0L
0"
#980000
08
14
17
1?
1i
0b
1a
1^
1%!
1$!
0&!
13!
1<!
0=!
x'!
x)!
x+!
0{
1z
x-!
0W
1V
0-
1,
xp
xL
x"
#990000
18
1b
1&!
1'!
01!
0t
0P
0&
