1 ano/2 Semestre/LSD/Pratico/Prat03/simulation/qsim/AdderDemo.msim.vcd
$comment
	File created using the following command:
		vcd file AdderDemo.msim.vcd -direction
$end
$date
	Thu Mar  7 11:55:24 2024
$end
$version
	Questa Intel Starter FPGA Edition Version 2021.2
$end
$timescale
	1ps
$end

$scope module adder4_vhd_vec_tst $end
$var wire 1 ! a [3] $end
$var wire 1 " a [2] $end
$var wire 1 # a [1] $end
$var wire 1 $ a [0] $end
$var wire 1 % b [3] $end
$var wire 1 & b [2] $end
$var wire 1 ' b [1] $end
$var wire 1 ( b [0] $end
$var wire 1 ) cin $end
$var wire 1 * cout $end
$var wire 1 + s [3] $end
$var wire 1 , s [2] $end
$var wire 1 - s [1] $end
$var wire 1 . s [0] $end

$scope module i1 $end
$var wire 1 / gnd $end
$var wire 1 0 vcc $end
$var wire 1 1 unknown $end
$var wire 1 2 devoe $end
$var wire 1 3 devclrn $end
$var wire 1 4 devpor $end
$var wire 1 5 ww_devoe $end
$var wire 1 6 ww_devclrn $end
$var wire 1 7 ww_devpor $end
$var wire 1 8 ww_a [3] $end
$var wire 1 9 ww_a [2] $end
$var wire 1 : ww_a [1] $end
$var wire 1 ; ww_a [0] $end
$var wire 1 < ww_b [3] $end
$var wire 1 = ww_b [2] $end
$var wire 1 > ww_b [1] $end
$var wire 1 ? ww_b [0] $end
$var wire 1 @ ww_cin $end
$var wire 1 A ww_s [3] $end
$var wire 1 B ww_s [2] $end
$var wire 1 C ww_s [1] $end
$var wire 1 D ww_s [0] $end
$var wire 1 E ww_cout $end
$var wire 1 F \s[0]~output_o\ $end
$var wire 1 G \s[1]~output_o\ $end
$var wire 1 H \s[2]~output_o\ $end
$var wire 1 I \s[3]~output_o\ $end
$var wire 1 J \cout~output_o\ $end
$var wire 1 K \a[0]~input_o\ $end
$var wire 1 L \b[0]~input_o\ $end
$var wire 1 M \cin~input_o\ $end
$var wire 1 N \bit0|s~0_combout\ $end
$var wire 1 O \b[1]~input_o\ $end
$var wire 1 P \a[1]~input_o\ $end
$var wire 1 Q \bit0|cout~0_combout\ $end
$var wire 1 R \bit1|s~combout\ $end
$var wire 1 S \bit1|cout~0_combout\ $end
$var wire 1 T \a[2]~input_o\ $end
$var wire 1 U \b[2]~input_o\ $end
$var wire 1 V \bit2|s~combout\ $end
$var wire 1 W \bit2|cout~0_combout\ $end
$var wire 1 X \a[3]~input_o\ $end
$var wire 1 Y \b[3]~input_o\ $end
$var wire 1 Z \bit3|s~combout\ $end
$var wire 1 [ \bit3|cout~0_combout\ $end
$upscope $end
$upscope $end
$enddefinitions $end
#0
$dumpvars
1)
0*
0/
10
x1
12
13
14
15
16
17
1@
0E
1F
0G
0H
0I
0J
0K
0L
1M
1N
0O
0P
0Q
0R
0S
0T
0U
0V
0W
0X
0Y
0Z
0[
0+
0,
0-
1.
0A
0B
0C
1D
0!
0"
0#
0$
0%
0&
0'
0(
08
09
0:
0;
0<
0=
0>
0?
$end
#10000
1(
1?
1L
0N
1Q
1R
0F
0D
1G
0.
1C
1-
#20000
0(
1$
1'
0?
1>
1;
1K
1O
0L
0R
1S
1V
0G
0C
1H
0-
1B
1,
#30000
1(
0)
1?
0@
0M
1L
#40000
0(
0$
0'
1#
1&
0?
0>
1=
0;
1:
1P
0K
1U
0O
0L
0V
1W
0Q
1R
0S
1Z
1V
0W
0H
0Z
0B
1I
1G
0,
1A
1C
1H
1-
1+
1B
0I
1,
0A
0+
#50000
1(
1?
1L
1N
1F
1D
1.
#60000
0(
1$
1'
0?
1>
1;
1K
1O
0L
0R
1S
0V
1W
1Z
0G
0C
0H
0-
0B
1I
0,
1A
1+
#70000
1(
1?
1L
0N
1Q
1R
0F
0D
1G
0.
1C
1-
#80000
0(
0$
0'
0#
0&
1"
1%
0?
0>
0=
1<
0;
0:
19
1T
0P
0K
1Y
0U
0O
0L
0Z
1[
0Q
0S
1V
0W
0R
1Z
0[
1J
0I
1E
0A
0G
1H
1*
0+
0C
1B
0J
1I
0-
1,
0E
1A
0*
1+
#90000
1(
1?
1L
1N
1F
1D
1.
#100000
0(
1$
1'
0?
1>
1;
1K
1O
0L
1R
1G
1C
1-
#110000
1(
1?
1L
0N
1Q
0R
1S
0V
1W
0F
0Z
1[
0D
0G
0.
0C
0H
0-
0B
1J
0I
0,
1E
0A
1*
0+
#120000
0(
0$
0'
1#
1&
0?
0>
1=
0;
1:
1P
0K
1U
0O
0L
1V
0Q
1R
0S
0V
1H
1B
1G
1,
1C
0H
1-
0B
0,
#130000
1(
1?
1L
1N
1F
1D
1.
#140000
0(
1$
1'
0?
1>
1;
1K
1O
0L
0R
1S
1V
0G
0C
1H
0-
1B
1,
#150000
1(
1?
1L
0N
1Q
1R
0F
0D
1G
0.
1C
1-
#160000
0(
0$
0'
0#
0&
0"
0%
1!
0?
0>
0=
0<
0;
0:
09
18
1X
0T
0P
0K
0Y
0U
0O
0L
0Q
0S
0W
1Z
0[
0V
0R
0G
0H
0J
1I
0C
0B
0E
1A
0-
0,
1+
0*
#170000
1(
1?
1L
1N
1F
1D
1.
#180000
0(
1$
1'
0?
1>
1;
1K
1O
0L
1R
1G
1C
1-
#190000
1(
1?
1L
0N
1Q
0R
1S
1V
0F
0D
0G
0.
0C
1H
0-
1B
1,
#200000
0(
0$
0'
1#
1&
0?
0>
1=
0;
1:
1P
0K
1U
0O
0L
0V
1W
0Q
1R
0S
0Z
1[
1V
0W
0H
1Z
0[
0B
1J
0I
1G
0,
1E
0A
1C
1H
1*
1-
0+
1B
0J
1I
1,
0E
1A
0*
1+
#210000
1(
1?
1L
1N
1F
1D
1.
#220000
0(
1$
1'
0?
1>
1;
1K
1O
0L
0R
1S
0V
1W
0Z
1[
0G
0C
0H
0-
0B
1J
0I
0,
1E
0A
1*
0+
#230000
1(
1?
1L
0N
1Q
1R
0F
0D
1G
0.
1C
1-
#240000
0(
0$
0'
0#
0&
1"
1%
0?
0>
0=
1<
0;
0:
19
1T
0P
0K
1Y
0U
0O
0L
1Z
0Q
0S
1V
0W
0R
0Z
1I
1A
0G
1H
1+
0C
1B
0I
0-
1,
0A
0+
#250000
1(
1?
1L
1N
1F
1D
1.
#260000
0(
1$
1'
0?
1>
1;
1K
1O
0L
1R
1G
1C
1-
#270000
1(
1?
1L
0N
1Q
0R
1S
0V
1W
0F
1Z
0D
0G
0.
0C
0H
0-
0B
1I
0,
1A
1+
#280000
0(
0$
0'
1#
1&
0?
0>
1=
0;
1:
1P
0K
1U
0O
0L
1V
0Q
1R
0S
0V
1H
1B
1G
1,
1C
0H
1-
0B
0,
#290000
1(
1?
1L
1N
1F
1D
1.
#300000
0(
1$
1'
0?
1>
1;
1K
1O
0L
0R
1S
1V
0G
0C
1H
0-
1B
1,
#310000
1(
1?
1L
0N
1Q
1R
0F
0D
1G
0.
1C
1-
#320000
0(
0$
0'
0#
0&
0"
0%
0!
0?
0>
0=
0<
0;
0:
09
08
0X
0T
0P
0K
0Y
0U
0O
0L
0Q
0S
0W
0[
0Z
0V
0R
0J
0E
0G
0H
0I
0*
0C
0B
0A
0-
0,
0+
#330000
1(
1?
1L
1N
1F
1D
1.
#340000
0(
1$
1'
0?
1>
1;
1K
1O
0L
1R
1G
1C
1-
#350000
1(
1?
1L
0N
1Q
0R
1S
1V
0F
0D
0G
0.
0C
1H
0-
1B
1,
#360000
0(
0$
0'
1#
1&
0?
0>
1=
0;
1:
1P
0K
1U
0O
0L
0V
1W
0Q
1R
0S
1Z
1V
0W
0H
0Z
0B
1I
1G
0,
1A
1C
1H
1-
1+
1B
0I
1,
0A
0+
#370000
1(
1?
1L
1N
1F
1D
1.
#380000
0(
1$
1'
0?
1>
1;
1K
1O
0L
0R
1S
0V
1W
1Z
0G
0C
0H
0-
0B
1I
0,
1A
1+
#390000
1(
1?
1L
0N
1Q
1R
0F
0D
1G
0.
1C
1-
#400000
0(
0$
0'
0#
0&
1"
1%
0?
0>
0=
1<
0;
0:
19
1T
0P
0K
1Y
0U
0O
0L
0Z
1[
0Q
0S
1V
0W
0R
1Z
0[
1J
0I
1E
0A
0G
1H
1*
0+
0C
1B
0J
1I
0-
1,
0E
1A
0*
1+
#410000
1(
1?
1L
1N
1F
1D
1.
#420000
0(
1$
1'
0?
1>
1;
1K
1O
0L
1R
1G
1C
1-
#430000
1(
1?
1L
0N
1Q
0R
1S
0V
1W
0F
0Z
1[
0D
0G
0.
0C
0H
0-
0B
1J
0I
0,
1E
0A
1*
0+
#440000
0(
0$
0'
1#
1&
0?
0>
1=
0;
1:
1P
0K
1U
0O
0L
1V
0Q
1R
0S
0V
1H
1B
1G
1,
1C
0H
1-
0B
0,
#450000
1(
1?
1L
1N
1F
1D
1.
#460000
0(
1$
1'
0?
1>
1;
1K
1O
0L
0R
1S
1V
0G
0C
1H
0-
1B
1,
#470000
1(
1?
1L
0N
1Q
1R
0F
0D
1G
0.
1C
1-
#480000
0(
0$
0'
0#
0&
0"
0%
1!
0?
0>
0=
0<
0;
0:
09
18
1X
0T
0P
0K
0Y
0U
0O
0L
0Q
0S
0W
1Z
0[
0V
0R
0G
0H
0J
1I
0C
0B
0E
1A
0-
0,
1+
0*
#490000
1(
1?
1L
1N
1F
1D
1.
#500000
0(
1$
1'
0?
1>
1;
1K
1O
0L
1R
1G
1C
1-
#510000
1(
1?
1L
0N
1Q
0R
1S
1V
0F
0D
0G
0.
0C
1H
0-
1B
1,
#520000
0(
0$
0'
1#
1&
0?
0>
1=
0;
1:
1P
0K
1U
0O
0L
0V
1W
0Q
1R
0S
0Z
1[
1V
0W
0H
1Z
0[
0B
1J
0I
1G
0,
1E
0A
1C
1H
1*
1-
0+
1B
0J
1I
1,
0E
1A
0*
1+
#530000
1(
1?
1L
1N
1F
1D
1.
#540000
0(
1$
1'
0?
1>
1;
1K
1O
0L
0R
1S
0V
1W
0Z
1[
0G
0C
0H
0-
0B
1J
0I
0,
1E
0A
1*
0+
#550000
1(
1?
1L
0N
1Q
1R
0F
0D
1G
0.
1C
1-
#560000
0(
0$
0'
0#
0&
1"
1%
0?
0>
0=
1<
0;
0:
19
1T
0P
0K
1Y
0U
0O
0L
1Z
0Q
0S
1V
0W
0R
0Z
1I
1A
0G
1H
1+
0C
1B
0I
0-
1,
0A
0+
#570000
1(
1?
1L
1N
1F
1D
1.
#580000
0(
1$
1'
0?
1>
1;
1K
1O
0L
1R
1G
1C
1-
#590000
1(
1?
1L
0N
1Q
0R
1S
0V
1W
0F
1Z
0D
0G
0.
0C
0H
0-
0B
1I
0,
1A
1+
#600000
0(
0$
0'
1#
1&
0?
0>
1=
0;
1:
1P
0K
1U
0O
0L
1V
0Q
1R
0S
0V
1H
1B
1G
1,
1C
0H
1-
0B
0,
#610000
1(
1?
1L
1N
1F
1D
1.
#620000
0(
1$
1'
0?
1>
1;
1K
1O
0L
0R
1S
1V
0G
0C
1H
0-
1B
1,
#630000
1(
1?
1L
0N
1Q
1R
0F
0D
1G
0.
1C
1-
#640000
0(
0$
0'
0#
0&
0"
0%
0!
0?
0>
0=
0<
0;
0:
09
08
0X
0T
0P
0K
0Y
0U
0O
0L
0Q
0S
0W
0[
0Z
0V
0R
0J
0E
0G
0H
0I
0*
0C
0B
0A
0-
0,
0+
#650000
1(
1?
1L
1N
1F
1D
1.
#660000
0(
1$
1'
0?
1>
1;
1K
1O
0L
1R
1G
1C
1-
#670000
1(
1?
1L
0N
1Q
0R
1S
1V
0F
0D
0G
0.
0C
1H
0-
1B
1,
#680000
0(
0$
0'
1#
1&
0?
0>
1=
0;
1:
1P
0K
1U
0O
0L
0V
1W
0Q
1R
0S
1Z
1V
0W
0H
0Z
0B
1I
1G
0,
1A
1C
1H
1-
1+
1B
0I
1,
0A
0+
#690000
1(
1?
1L
1N
1F
1D
1.
#700000
0(
1$
1'
0?
1>
1;
1K
1O
0L
0R
1S
0V
1W
1Z
0G
0C
0H
0-
0B
1I
0,
1A
1+
#710000
1(
1?
1L
0N
1Q
1R
0F
0D
1G
0.
1C
1-
#720000
0(
0$
0'
0#
0&
1"
1%
0?
0>
0=
1<
0;
0:
19
1T
0P
0K
1Y
0U
0O
0L
0Z
1[
0Q
0S
1V
0W
0R
1Z
0[
1J
0I
1E
0A
0G
1H
1*
0+
0C
1B
0J
1I
0-
1,
0E
1A
0*
1+
#730000
1(
1?
1L
1N
1F
1D
1.
#740000
0(
1$
1'
0?
1>
1;
1K
1O
0L
1R
1G
1C
1-
#750000
1(
1?
1L
0N
1Q
0R
1S
0V
1W
0F
0Z
1[
0D
0G
0.
0C
0H
0-
0B
1J
0I
0,
1E
0A
1*
0+
#760000
0(
0$
0'
1#
1&
0?
0>
1=
0;
1:
1P
0K
1U
0O
0L
1V
0Q
1R
0S
0V
1H
1B
1G
1,
1C
0H
1-
0B
0,
#770000
1(
1?
1L
1N
1F
1D
1.
#780000
0(
1$
1'
0?
1>
1;
1K
1O
0L
0R
1S
1V
0G
0C
1H
0-
1B
1,
#790000
1(
1?
1L
0N
1Q
1R
0F
0D
1G
0.
1C
1-
#800000
0(
0$
0'
0#
0&
0"
0%
1!
0?
0>
0=
0<
0;
0:
09
18
1X
0T
0P
0K
0Y
0U
0O
0L
0Q
0S
0W
1Z
0[
0V
0R
0G
0H
0J
1I
0C
0B
0E
1A
0-
0,
1+
0*
#810000
1(
1?
1L
1N
1F
1D
1.
#820000
0(
1$
1'
0?
1>
1;
1K
1O
0L
1R
1G
1C
1-
#830000
1(
1?
1L
0N
1Q
0R
1S
1V
0F
0D
0G
0.
0C
1H
0-
1B
1,
#840000
0(
0$
0'
1#
1&
0?
0>
1=
0;
1:
1P
0K
1U
0O
0L
0V
1W
0Q
1R
0S
0Z
1[
1V
0W
0H
1Z
0[
0B
1J
0I
1G
0,
1E
0A
1C
1H
1*
1-
0+
1B
0J
1I
1,
0E
1A
0*
1+
#850000
1(
1?
1L
1N
1F
1D
1.
#860000
0(
1$
1'
0?
1>
1;
1K
1O
0L
0R
1S
0V
1W
0Z
1[
0G
0C
0H
0-
0B
1J
0I
0,
1E
0A
1*
0+
#870000
1(
1?
1L
0N
1Q
1R
0F
0D
1G
0.
1C
1-
#880000
0(
0$
0'
0#
0&
1"
1%
0?
0>
0=
1<
0;
0:
19
1T
0P
0K
1Y
0U
0O
0L
1Z
0Q
0S
1V
0W
0R
0Z
1I
1A
0G
1H
1+
0C
1B
0I
0-
1,
0A
0+
#890000
1(
1?
1L
1N
1F
1D
1.
#900000
0(
1$
1'
0?
1>
1;
1K
1O
0L
1R
1G
1C
1-
#910000
1(
1?
1L
0N
1Q
0R
1S
0V
1W
0F
1Z
0D
0G
0.
0C
0H
0-
0B
1I
0,
1A
1+
#920000
0(
0$
0'
1#
1&
0?
0>
1=
0;
1:
1P
0K
1U
0O
0L
1V
0Q
1R
0S
0V
1H
1B
1G
1,
1C
0H
1-
0B
0,
#930000
1(
1?
1L
1N
1F
1D
1.
#940000
0(
1$
1'
0?
1>
1;
1K
1O
0L
0R
1S
1V
0G
0C
1H
0-
1B
1,
#950000
1(
1?
1L
0N
1Q
1R
0F
0D
1G
0.
1C
1-
#960000
0(
0$
0'
0#
0&
0"
0%
0!
0?
0>
0=
0<
0;
0:
09
08
0X
0T
0P
0K
0Y
0U
0O
0L
0Q
0S
0W
0[
0Z
0V
0R
0J
0E
0G
0H
0I
0*
0C
0B
0A
0-
0,
0+
#970000
1(
1?
1L
1N
1F
1D
1.
#980000
0(
1$
1'
0?
1>
1;
1K
1O
0L
1R
1G
1C
1-
#990000
1(
1?
1L
0N
1Q
0R
1S
1V
0F
0D
0G
0.
0C
1H
0-
1B
1,
