1 ano/1 Semestre/ISD/S1/simulation/qsim/DecoderDemo.msim.vcd
$comment
	File created using the following command:
		vcd file DecoderDemo.msim.vcd -direction
$end
$date
	Thu Nov 30 12:58:00 2023
$end
$version
	Questa Intel Starter FPGA Edition Version 2021.2
$end
$timescale
	1ps
$end

$scope module decoderdemo2_vhd_vec_tst $end
$var wire 1 ! EN0_L $end
$var wire 1 " EN1 $end
$var wire 1 # X0 $end
$var wire 1 $ X1 $end
$var wire 1 % X2 $end
$var wire 1 & X3 $end
$var wire 1 ' Y0 $end
$var wire 1 ( Y1 $end
$var wire 1 ) Y2 $end
$var wire 1 * Y3 $end
$var wire 1 + Y4 $end
$var wire 1 , Y5 $end
$var wire 1 - Y6 $end
$var wire 1 . Y7 $end
$var wire 1 / Y8 $end
$var wire 1 0 Y9 $end
$var wire 1 1 Y10 $end
$var wire 1 2 Y11 $end
$var wire 1 3 Y12 $end
$var wire 1 4 Y13 $end
$var wire 1 5 Y14 $end
$var wire 1 6 Y15 $end

$scope module i1 $end
$var wire 1 7 gnd $end
$var wire 1 8 vcc $end
$var wire 1 9 unknown $end
$var wire 1 : devoe $end
$var wire 1 ; devclrn $end
$var wire 1 < devpor $end
$var wire 1 = ww_devoe $end
$var wire 1 > ww_devclrn $end
$var wire 1 ? ww_devpor $end
$var wire 1 @ ww_Y0 $end
$var wire 1 A ww_X3 $end
$var wire 1 B ww_X2 $end
$var wire 1 C ww_X1 $end
$var wire 1 D ww_X0 $end
$var wire 1 E ww_EN1 $end
$var wire 1 F ww_EN0_L $end
$var wire 1 G ww_Y1 $end
$var wire 1 H ww_Y2 $end
$var wire 1 I ww_Y3 $end
$var wire 1 J ww_Y4 $end
$var wire 1 K ww_Y5 $end
$var wire 1 L ww_Y6 $end
$var wire 1 M ww_Y7 $end
$var wire 1 N ww_Y8 $end
$var wire 1 O ww_Y9 $end
$var wire 1 P ww_Y10 $end
$var wire 1 Q ww_Y11 $end
$var wire 1 R ww_Y12 $end
$var wire 1 S ww_Y13 $end
$var wire 1 T ww_Y14 $end
$var wire 1 U ww_Y15 $end
$var wire 1 V \Y0~output_o\ $end
$var wire 1 W \Y1~output_o\ $end
$var wire 1 X \Y2~output_o\ $end
$var wire 1 Y \Y3~output_o\ $end
$var wire 1 Z \Y4~output_o\ $end
$var wire 1 [ \Y5~output_o\ $end
$var wire 1 \ \Y6~output_o\ $end
$var wire 1 ] \Y7~output_o\ $end
$var wire 1 ^ \Y8~output_o\ $end
$var wire 1 _ \Y9~output_o\ $end
$var wire 1 ` \Y10~output_o\ $end
$var wire 1 a \Y11~output_o\ $end
$var wire 1 b \Y12~output_o\ $end
$var wire 1 c \Y13~output_o\ $end
$var wire 1 d \Y14~output_o\ $end
$var wire 1 e \Y15~output_o\ $end
$var wire 1 f \EN1~input_o\ $end
$var wire 1 g \X3~input_o\ $end
$var wire 1 h \EN0_L~input_o\ $end
$var wire 1 i \inst|inst2|inst~0_combout\ $end
$var wire 1 j \X0~input_o\ $end
$var wire 1 k \X2~input_o\ $end
$var wire 1 l \X1~input_o\ $end
$var wire 1 m \inst|inst2|inst~1_combout\ $end
$var wire 1 n \inst|inst2|inst1~0_combout\ $end
$var wire 1 o \inst|inst2|inst2~0_combout\ $end
$var wire 1 p \inst|inst2|inst2~1_combout\ $end
$var wire 1 q \inst|inst2|inst3~0_combout\ $end
$var wire 1 r \inst|inst3|inst~0_combout\ $end
$var wire 1 s \inst|inst3|inst1~0_combout\ $end
$var wire 1 t \inst|inst3|inst2~0_combout\ $end
$var wire 1 u \inst|inst3|inst3~0_combout\ $end
$var wire 1 v \inst|inst4|inst~0_combout\ $end
$var wire 1 w \inst|inst4|inst1~0_combout\ $end
$var wire 1 x \inst|inst4|inst2~0_combout\ $end
$var wire 1 y \inst|inst4|inst3~0_combout\ $end
$var wire 1 z \inst|inst5|inst~0_combout\ $end
$var wire 1 { \inst|inst5|inst1~0_combout\ $end
$var wire 1 | \inst|inst5|inst2~0_combout\ $end
$var wire 1 } \inst|inst5|inst3~0_combout\ $end
$upscope $end
$upscope $end
$enddefinitions $end
#0
$dumpvars
0!
1"
0#
0$
0%
0&
1'
0(
0)
0*
0+
0,
0-
0.
0/
00
01
02
03
04
05
06
07
18
x9
1:
1;
1<
1=
1>
1?
1@
0A
0B
0C
0D
1E
0F
0G
0H
0I
0J
0K
0L
0M
0N
0O
0P
0Q
0R
0S
0T
0U
1V
0W
0X
0Y
0Z
0[
0\
0]
0^
0_
0`
0a
0b
0c
0d
0e
1f
0g
0h
1i
0j
0k
0l
1m
0n
0o
0p
0q
0r
0s
0t
0u
0v
0w
0x
0y
0z
0{
0|
0}
$end
#10000
1#
1D
1j
0m
1r
1Z
0V
1J
0@
1+
0'
#20000
0#
1$
0D
1C
1l
0j
0r
1v
1^
0Z
1N
0J
1/
0+
#30000
1#
1D
1j
0v
1z
1b
0^
1R
0N
13
0/
#40000
0#
0$
1%
0D
0C
1B
1k
0l
0j
1n
0z
0b
1W
0R
1G
03
1(
#50000
1#
1D
1j
0n
1s
1[
0W
1K
0G
1,
0(
#60000
0#
1$
0D
1C
1l
0j
0s
1w
1_
0[
1O
0K
10
0,
#70000
1#
1D
1j
0w
1{
1c
0_
1S
0O
14
00
#80000
0#
0$
0%
1&
0D
0C
0B
1A
1g
0k
0l
0j
1m
0{
0i
1o
1p
0m
0c
1V
0S
1@
0V
1X
04
1'
0@
1H
0'
1)
#90000
1#
1D
1j
0p
1t
1\
0X
1L
0H
1-
0)
#100000
0#
1$
0D
1C
1l
0j
0t
1x
1`
0\
1P
0L
11
0-
#110000
1#
1D
1j
0x
1|
1d
0`
1T
0P
15
01
#120000
0#
0$
1%
0D
0C
1B
1k
0l
0j
1q
0|
0d
1Y
0T
1I
05
1*
#130000
1#
1D
1j
0q
1u
1]
0Y
1M
0I
1.
0*
#140000
0#
1$
0D
1C
1l
0j
0u
1y
1a
0]
1Q
0M
12
0.
#150000
1#
1D
1j
0y
1}
1e
0a
1U
0Q
16
02
#160000
0#
0$
0%
0&
0D
0C
0B
0A
0g
0k
0l
0j
1p
0}
1i
0o
0p
1m
0e
1X
0U
1H
1V
0X
06
1)
1@
0H
1'
0)
#170000
1#
1D
1j
0m
1r
1Z
0V
1J
0@
1+
0'
#180000
0#
1$
0D
1C
1l
0j
0r
1v
1^
0Z
1N
0J
1/
0+
#190000
1#
1D
1j
0v
1z
1b
0^
1R
0N
13
0/
#200000
0#
0$
1%
0D
0C
1B
1k
0l
0j
1n
0z
0b
1W
0R
1G
03
1(
#210000
1#
1D
1j
0n
1s
1[
0W
1K
0G
1,
0(
#220000
0#
1$
0D
1C
1l
0j
0s
1w
1_
0[
1O
0K
10
0,
#230000
1#
1D
1j
0w
1{
1c
0_
1S
0O
14
00
#240000
0#
0$
0%
1&
0D
0C
0B
1A
1g
0k
0l
0j
1m
0{
0i
1o
1p
0m
0c
1V
0S
1@
0V
1X
04
1'
0@
1H
0'
1)
#250000
1#
1D
1j
0p
1t
1\
0X
1L
0H
1-
0)
#260000
0#
1$
0D
1C
1l
0j
0t
1x
1`
0\
1P
0L
11
0-
#270000
1#
1D
1j
0x
1|
1d
0`
1T
0P
15
01
#280000
0#
0$
1%
0D
0C
1B
1k
0l
0j
1q
0|
0d
1Y
0T
1I
05
1*
#290000
1#
1D
1j
0q
1u
1]
0Y
1M
0I
1.
0*
#300000
0#
1$
0D
1C
1l
0j
0u
1y
1a
0]
1Q
0M
12
0.
#310000
1#
1D
1j
0y
1}
1e
0a
1U
0Q
16
02
#320000
0#
0$
0%
0&
0D
0C
0B
0A
0g
0k
0l
0j
1p
0}
1i
0o
0p
1m
0e
1X
0U
1H
1V
0X
06
1)
1@
0H
1'
0)
#330000
1#
1D
1j
0m
1r
1Z
0V
1J
0@
1+
0'
#340000
0#
1$
0D
1C
1l
0j
0r
1v
1^
0Z
1N
0J
1/
0+
#350000
1#
1D
1j
0v
1z
1b
0^
1R
0N
13
0/
#360000
0#
0$
1%
0D
0C
1B
1k
0l
0j
1n
0z
0b
1W
0R
1G
03
1(
#370000
1#
1D
1j
0n
1s
1[
0W
1K
0G
1,
0(
#380000
0#
1$
0D
1C
1l
0j
0s
1w
1_
0[
1O
0K
10
0,
#390000
1#
1D
1j
0w
1{
1c
0_
1S
0O
14
00
#400000
0#
0$
0%
1&
0D
0C
0B
1A
1g
0k
0l
0j
1m
0{
0i
1o
1p
0m
0c
1V
0S
1@
0V
1X
04
1'
0@
1H
0'
1)
#410000
1#
1D
1j
0p
1t
1\
0X
1L
0H
1-
0)
#420000
0#
1$
0D
1C
1l
0j
0t
1x
1`
0\
1P
0L
11
0-
#430000
1#
1D
1j
0x
1|
1d
0`
1T
0P
15
01
#440000
0#
0$
1%
0D
0C
1B
1k
0l
0j
1q
0|
0d
1Y
0T
1I
05
1*
#450000
1#
1D
1j
0q
1u
1]
0Y
1M
0I
1.
0*
#460000
0#
1$
0D
1C
1l
0j
0u
1y
1a
0]
1Q
0M
12
0.
#470000
1#
1D
1j
0y
1}
1e
0a
1U
0Q
16
02
#480000
0#
0$
0%
0&
0D
0C
0B
0A
0g
0k
0l
0j
1p
0}
1i
0o
0p
1m
0e
1X
0U
1H
1V
0X
06
1)
1@
0H
1'
0)
#490000
1#
1D
1j
0m
1r
1Z
0V
1J
0@
1+
0'
#500000
0#
1$
0D
1C
1l
0j
0r
1v
1^
0Z
1N
0J
1/
0+
#510000
1#
1D
1j
0v
1z
1b
0^
1R
0N
13
0/
#520000
0#
0$
1%
0D
0C
1B
1k
0l
0j
1n
0z
0b
1W
0R
1G
03
1(
#530000
1#
1D
1j
0n
1s
1[
0W
1K
0G
1,
0(
#540000
0#
1$
0D
1C
1l
0j
0s
1w
1_
0[
1O
0K
10
0,
#550000
1#
1D
1j
0w
1{
1c
0_
1S
0O
14
00
#560000
0#
0$
0%
1&
0D
0C
0B
1A
1g
0k
0l
0j
1m
0{
0i
1o
1p
0m
0c
1V
0S
1@
0V
1X
04
1'
0@
1H
0'
1)
#570000
1#
1D
1j
0p
1t
1\
0X
1L
0H
1-
0)
#580000
0#
1$
0D
1C
1l
0j
0t
1x
1`
0\
1P
0L
11
0-
#590000
1#
1D
1j
0x
1|
1d
0`
1T
0P
15
01
#600000
0#
0$
1%
0D
0C
1B
1k
0l
0j
1q
0|
0d
1Y
0T
1I
05
1*
#610000
1#
1D
1j
0q
1u
1]
0Y
1M
0I
1.
0*
#620000
0#
1$
0D
1C
1l
0j
0u
1y
1a
0]
1Q
0M
12
0.
#630000
1#
1D
1j
0y
1}
1e
0a
1U
0Q
16
02
#640000
0#
0$
0%
0&
0D
0C
0B
0A
0g
0k
0l
0j
1p
0}
1i
0o
0p
1m
0e
1X
0U
1H
1V
0X
06
1)
1@
0H
1'
0)
#650000
1#
1D
1j
0m
1r
1Z
0V
1J
0@
1+
0'
#660000
0#
1$
0D
1C
1l
0j
0r
1v
1^
0Z
1N
0J
1/
0+
#670000
1#
1D
1j
0v
1z
1b
0^
1R
0N
13
0/
#680000
0#
0$
1%
0D
0C
1B
1k
0l
0j
1n
0z
0b
1W
0R
1G
03
1(
#690000
1#
1D
1j
0n
1s
1[
0W
1K
0G
1,
0(
#700000
0#
1$
0D
1C
1l
0j
0s
1w
1_
0[
1O
0K
10
0,
#710000
1#
1D
1j
0w
1{
1c
0_
1S
0O
14
00
#720000
0#
0$
0%
1&
0D
0C
0B
1A
1g
0k
0l
0j
1m
0{
0i
1o
1p
0m
0c
1V
0S
1@
0V
1X
04
1'
0@
1H
0'
1)
#730000
1#
1D
1j
0p
1t
1\
0X
1L
0H
1-
0)
#740000
0#
1$
0D
1C
1l
0j
0t
1x
1`
0\
1P
0L
11
0-
#750000
1#
1D
1j
0x
1|
1d
0`
1T
0P
15
01
#760000
0#
0$
1%
0D
0C
1B
1k
0l
0j
1q
0|
0d
1Y
0T
1I
05
1*
#770000
1#
1D
1j
0q
1u
1]
0Y
1M
0I
1.
0*
#780000
0#
1$
0D
1C
1l
0j
0u
1y
1a
0]
1Q
0M
12
0.
#790000
1#
1D
1j
0y
1}
1e
0a
1U
0Q
16
02
#800000
0#
0$
0%
0&
0D
0C
0B
0A
0g
0k
0l
0j
1p
0}
1i
0o
0p
1m
0e
1X
0U
1H
1V
0X
06
1)
1@
0H
1'
0)
#810000
1#
1D
1j
0m
1r
1Z
0V
1J
0@
1+
0'
#820000
0#
1$
0D
1C
1l
0j
0r
1v
1^
0Z
1N
0J
1/
0+
#830000
1#
1D
1j
0v
1z
1b
0^
1R
0N
13
0/
#840000
0#
0$
1%
0D
0C
1B
1k
0l
0j
1n
0z
0b
1W
0R
1G
03
1(
#850000
1#
1D
1j
0n
1s
1[
0W
1K
0G
1,
0(
#860000
0#
1$
0D
1C
1l
0j
0s
1w
1_
0[
1O
0K
10
0,
#870000
1#
1D
1j
0w
1{
1c
0_
1S
0O
14
00
#880000
0#
0$
0%
1&
0D
0C
0B
1A
1g
0k
0l
0j
1m
0{
0i
1o
1p
0m
0c
1V
0S
1@
0V
1X
04
1'
0@
1H
0'
1)
#890000
1#
1D
1j
0p
1t
1\
0X
1L
0H
1-
0)
#900000
0#
1$
0D
1C
1l
0j
0t
1x
1`
0\
1P
0L
11
0-
#910000
1#
1D
1j
0x
1|
1d
0`
1T
0P
15
01
#920000
0#
0$
1%
0D
0C
1B
1k
0l
0j
1q
0|
0d
1Y
0T
1I
05
1*
#930000
1#
1D
1j
0q
1u
1]
0Y
1M
0I
1.
0*
#940000
0#
1$
0D
1C
1l
0j
0u
1y
1a
0]
1Q
0M
12
0.
#950000
1#
1D
1j
0y
1}
1e
0a
1U
0Q
16
02
#960000
0#
0$
0%
0&
0D
0C
0B
0A
0g
0k
0l
0j
1p
0}
1i
0o
0p
1m
0e
1X
0U
1H
1V
0X
06
1)
1@
0H
1'
0)
#970000
1#
1D
1j
0m
1r
1Z
0V
1J
0@
1+
0'
#980000
0#
1$
0D
1C
1l
0j
0r
1v
1^
0Z
1N
0J
1/
0+
#990000
1#
1D
1j
0v
1z
1b
0^
1R
0N
13
0/
