1 ano/2 Semestre/LSD/Pratico/Prat06/Parte 1/simulation/qsim/ShiftRegister_Demo.msim.vcd
$comment
	File created using the following command:
		vcd file ShiftRegister_Demo.msim.vcd -direction
$end
$date
	Thu Apr  4 09:58:32 2024
$end
$version
	Questa Intel Starter FPGA Edition Version 2021.2
$end
$timescale
	1ps
$end

$scope module shiftregister4_vhd_vec_tst $end
$var wire 1 ! clk $end
$var wire 1 " dataOut [3] $end
$var wire 1 # dataOut [2] $end
$var wire 1 $ dataOut [1] $end
$var wire 1 % dataOut [0] $end
$var wire 1 & sin $end

$scope module i1 $end
$var wire 1 ' gnd $end
$var wire 1 ( vcc $end
$var wire 1 ) unknown $end
$var wire 1 * devoe $end
$var wire 1 + devclrn $end
$var wire 1 , devpor $end
$var wire 1 - ww_devoe $end
$var wire 1 . ww_devclrn $end
$var wire 1 / ww_devpor $end
$var wire 1 0 ww_clk $end
$var wire 1 1 ww_sin $end
$var wire 1 2 ww_dataOut [3] $end
$var wire 1 3 ww_dataOut [2] $end
$var wire 1 4 ww_dataOut [1] $end
$var wire 1 5 ww_dataOut [0] $end
$var wire 1 6 \dataOut[0]~output_o\ $end
$var wire 1 7 \dataOut[1]~output_o\ $end
$var wire 1 8 \dataOut[2]~output_o\ $end
$var wire 1 9 \dataOut[3]~output_o\ $end
$var wire 1 : \clk~input_o\ $end
$var wire 1 ; \sin~input_o\ $end
$var wire 1 < s_shiftreg [3] $end
$var wire 1 = s_shiftreg [2] $end
$var wire 1 > s_shiftreg [1] $end
$var wire 1 ? s_shiftreg [0] $end
$upscope $end
$upscope $end
$enddefinitions $end
#0
$dumpvars
0!
1&
0'
1(
x)
1*
1+
1,
1-
1.
1/
00
11
06
07
08
09
0:
1;
0<
0=
0>
0?
0"
0#
0$
0%
02
03
04
05
$end
#10000
1!
10
1:
1?
16
15
1%
#20000
0!
0&
00
01
0;
0:
#30000
1!
10
1:
0?
1>
17
06
14
05
0%
1$
#40000
0!
1&
00
11
1;
0:
#50000
1!
10
1:
1?
0>
1=
18
07
16
13
04
15
1%
0$
1#
#60000
0!
0&
00
01
0;
0:
#70000
1!
10
1:
0?
1>
0=
1<
19
08
17
06
12
03
14
05
0%
1$
0#
1"
#80000
0!
00
0:
#90000
1!
10
1:
0>
1=
0<
09
18
07
02
13
04
0$
1#
0"
#100000
0!
1&
00
11
1;
0:
#110000
1!
10
1:
1?
0=
1<
19
08
16
12
03
15
1%
0#
1"
#120000
0!
0&
00
01
0;
0:
#130000
1!
10
1:
0?
1>
0<
09
17
06
02
14
05
0%
1$
0"
#140000
0!
00
0:
#150000
1!
10
1:
0>
1=
18
07
13
04
0$
1#
#160000
0!
1&
00
11
1;
0:
#170000
1!
10
1:
1?
0=
1<
19
08
16
12
03
15
1%
0#
1"
#180000
0!
0&
00
01
0;
0:
#190000
1!
10
1:
0?
1>
0<
09
17
06
02
14
05
0%
1$
0"
#200000
0!
1&
00
11
1;
0:
#210000
1!
10
1:
1?
0>
1=
18
07
16
13
04
15
1%
0$
1#
#220000
0!
0&
00
01
0;
0:
#230000
1!
10
1:
0?
1>
0=
1<
19
08
17
06
12
03
14
05
0%
1$
0#
1"
#240000
0!
1&
00
11
1;
0:
#250000
1!
10
1:
1?
0>
1=
0<
09
18
07
16
02
13
04
15
1%
0$
1#
0"
#260000
0!
00
0:
#270000
1!
10
1:
1>
0=
1<
19
08
17
12
03
14
1$
0#
1"
#280000
0!
0&
00
01
0;
0:
#290000
1!
10
1:
0?
1=
0<
09
18
06
02
13
05
0%
1#
0"
#300000
0!
1&
00
11
1;
0:
#310000
1!
10
1:
1?
0>
1<
19
07
16
12
04
15
1%
0$
1"
#320000
0!
0&
00
01
0;
0:
#330000
1!
10
1:
0?
1>
0=
08
17
06
03
14
05
0%
1$
0#
#340000
0!
00
0:
#350000
1!
10
1:
0>
1=
0<
09
18
07
02
13
04
0$
1#
0"
#360000
0!
1&
00
11
1;
0:
#370000
1!
10
1:
1?
0=
1<
19
08
16
12
03
15
1%
0#
1"
#380000
0!
00
0:
#390000
1!
10
1:
1>
0<
09
17
02
14
1$
0"
#400000
0!
0&
00
01
0;
0:
#410000
1!
10
1:
0?
1=
18
06
13
05
0%
1#
#420000
0!
1&
00
11
1;
0:
#430000
1!
10
1:
1?
0>
1<
19
07
16
12
04
15
1%
0$
1"
#440000
0!
00
0:
#450000
1!
10
1:
1>
0=
08
17
03
14
1$
0#
#460000
0!
0&
00
01
0;
0:
#470000
1!
10
1:
0?
1=
0<
09
18
06
02
13
05
0%
1#
0"
#480000
0!
1&
00
11
1;
0:
#490000
1!
10
1:
1?
0>
1<
19
07
16
12
04
15
1%
0$
1"
#500000
0!
0&
00
01
0;
0:
#510000
1!
10
1:
0?
1>
0=
08
17
06
03
14
05
0%
1$
0#
#520000
0!
1&
00
11
1;
0:
#530000
1!
10
1:
1?
0>
1=
0<
09
18
07
16
02
13
04
15
1%
0$
1#
0"
#540000
0!
0&
00
01
0;
0:
#550000
1!
10
1:
0?
1>
0=
1<
19
08
17
06
12
03
14
05
0%
1$
0#
1"
#560000
0!
1&
00
11
1;
0:
#570000
1!
10
1:
1?
0>
1=
0<
09
18
07
16
02
13
04
15
1%
0$
1#
0"
#580000
0!
00
0:
#590000
1!
10
1:
1>
0=
1<
19
08
17
12
03
14
1$
0#
1"
#600000
0!
00
0:
#610000
1!
10
1:
1=
0<
09
18
02
13
1#
0"
#620000
0!
0&
00
01
0;
0:
#630000
1!
10
1:
0?
1<
19
06
12
05
0%
1"
#640000
0!
00
0:
#650000
1!
10
1:
0>
07
04
0$
#660000
0!
00
0:
#670000
1!
10
1:
0=
08
03
0#
#680000
0!
00
0:
#690000
1!
10
1:
0<
09
02
0"
#700000
0!
1&
00
11
1;
0:
#710000
1!
10
1:
1?
16
15
1%
#720000
0!
00
0:
#730000
1!
10
1:
1>
17
14
1$
#740000
0!
0&
00
01
0;
0:
#750000
1!
10
1:
0?
1=
18
06
13
05
0%
1#
#760000
0!
00
0:
#770000
1!
10
1:
0>
1<
19
07
12
04
0$
1"
#780000
0!
00
0:
#790000
1!
10
1:
0=
08
03
0#
#800000
0!
00
0:
#810000
1!
10
1:
0<
09
02
0"
#820000
0!
1&
00
11
1;
0:
#830000
1!
10
1:
1?
16
15
1%
#840000
0!
0&
00
01
0;
0:
#850000
1!
10
1:
0?
1>
17
06
14
05
0%
1$
#860000
0!
00
0:
#870000
1!
10
1:
0>
1=
18
07
13
04
0$
1#
#880000
0!
00
0:
#890000
1!
10
1:
0=
1<
19
08
12
03
0#
1"
#900000
0!
1&
00
11
1;
0:
#910000
1!
10
1:
1?
0<
09
16
02
15
1%
0"
#920000
0!
00
0:
#930000
1!
10
1:
1>
17
14
1$
#940000
0!
00
0:
#950000
1!
10
1:
1=
18
13
1#
#960000
0!
0&
00
01
0;
0:
#970000
1!
10
1:
0?
1<
19
06
12
05
0%
1"
#980000
0!
1&
00
11
1;
0:
#990000
1!
10
1:
1?
0>
07
16
04
15
1%
0$
