1 ano/1 Semestre/ISD/Avaliação/S2/ISDSim2/simulation/qsim/MEF.msim.vcd
$comment
	File created using the following command:
		vcd file MEF.msim.vcd -direction
$end
$date
	Fri Dec 22 21:47:11 2023
$end
$version
	Questa Intel Starter FPGA Edition Version 2021.2
$end
$timescale
	1ps
$end

$scope module mefsymbol_vhd_vec_tst $end
$var wire 1 ! CLK $end
$var wire 1 " Q [1] $end
$var wire 1 # Q [0] $end
$var wire 1 $ RESET_L $end
$var wire 1 % X $end

$scope module i1 $end
$var wire 1 & gnd $end
$var wire 1 ' vcc $end
$var wire 1 ( unknown $end
$var wire 1 ) devoe $end
$var wire 1 * devclrn $end
$var wire 1 + devpor $end
$var wire 1 , ww_devoe $end
$var wire 1 - ww_devclrn $end
$var wire 1 . ww_devpor $end
$var wire 1 / ww_Q [1] $end
$var wire 1 0 ww_Q [0] $end
$var wire 1 1 ww_X $end
$var wire 1 2 ww_CLK $end
$var wire 1 3 ww_RESET_L $end
$var wire 1 4 \Q[1]~output_o\ $end
$var wire 1 5 \Q[0]~output_o\ $end
$var wire 1 6 \CLK~input_o\ $end
$var wire 1 7 \RESET_L~input_o\ $end
$var wire 1 8 \X~input_o\ $end
$var wire 1 9 \inst|inst7~combout\ $end
$var wire 1 : \inst|inst~q\ $end
$var wire 1 ; \inst|inst8~combout\ $end
$var wire 1 < \inst|inst4~q\ $end
$upscope $end
$upscope $end
$enddefinitions $end
#0
$dumpvars
0!
0$
0%
0&
1'
x(
1)
1*
1+
1,
1-
1.
01
02
03
04
05
06
07
08
19
0:
0;
0<
0"
0#
0/
00
$end
#5000
1!
12
16
1:
09
14
1/
1"
#10000
0!
1%
02
11
18
06
19
1;
#15000
1!
12
16
1<
0;
15
10
1#
#20000
0!
0%
02
01
08
06
09
1;
#25000
1!
12
16
0:
19
04
0/
0"
#30000
0!
1%
02
11
18
06
09
0;
#35000
1!
12
16
0<
1;
05
00
0#
#40000
0!
0%
02
01
08
06
19
0;
#45000
1!
12
16
1:
09
14
1/
1"
#50000
0!
1%
02
11
18
06
19
1;
#55000
1!
12
16
1<
0;
15
10
1#
#60000
0!
0%
02
01
08
06
09
1;
#65000
1!
12
16
0:
19
04
0/
0"
#70000
0!
1%
02
11
18
06
09
0;
#75000
1!
12
16
0<
1;
05
00
0#
#80000
0!
0%
02
01
08
06
19
0;
#85000
1!
12
16
1:
09
14
1/
1"
#90000
0!
1%
02
11
18
06
19
1;
#95000
1!
12
16
1<
0;
15
10
1#
#100000
0!
0%
02
01
08
06
09
1;
#105000
1!
12
16
0:
19
04
0/
0"
#110000
0!
1%
02
11
18
06
09
0;
#115000
1!
12
16
0<
1;
05
00
0#
#120000
0!
0%
02
01
08
06
19
0;
#125000
1!
12
16
1:
09
14
1/
1"
#130000
0!
1%
02
11
18
06
19
1;
#135000
1!
12
16
1<
0;
15
10
1#
#140000
0!
0%
02
01
08
06
09
1;
#145000
1!
12
16
0:
19
04
0/
0"
#150000
0!
1%
02
11
18
06
09
0;
#155000
1!
12
16
0<
1;
05
00
0#
#160000
0!
0%
02
01
08
06
19
0;
#165000
1!
12
16
1:
09
14
1/
1"
#170000
0!
1%
02
11
18
06
19
1;
#175000
1!
12
16
1<
0;
15
10
1#
#180000
0!
0%
02
01
08
06
09
1;
#185000
1!
12
16
0:
19
04
0/
0"
#190000
0!
1%
02
11
18
06
09
0;
#195000
1!
12
16
0<
1;
05
00
0#
#200000
0!
0%
02
01
08
06
19
0;
#205000
1!
12
16
1:
09
14
1/
1"
#210000
0!
1%
02
11
18
06
19
1;
#215000
1!
12
16
1<
0;
15
10
1#
#220000
0!
0%
02
01
08
06
09
1;
#225000
1!
12
16
0:
19
04
0/
0"
#230000
0!
1%
02
11
18
06
09
0;
#235000
1!
12
16
0<
1;
05
00
0#
#240000
0!
0%
02
01
08
06
19
0;
#245000
1!
12
16
1:
09
14
1/
1"
#250000
0!
1%
02
11
18
06
19
1;
#255000
1!
12
16
1<
0;
15
10
1#
#260000
0!
0%
02
01
08
06
09
1;
#265000
1!
12
16
0:
19
04
0/
0"
#270000
0!
1%
02
11
18
06
09
0;
#275000
1!
12
16
0<
1;
05
00
0#
#280000
0!
0%
02
01
08
06
19
0;
#285000
1!
12
16
1:
09
14
1/
1"
#290000
0!
1%
02
11
18
06
19
1;
#295000
1!
12
16
1<
0;
15
10
1#
#300000
0!
0%
02
01
08
06
09
1;
#305000
1!
12
16
0:
19
04
0/
0"
#310000
0!
1%
02
11
18
06
09
0;
#315000
1!
12
16
0<
1;
05
00
0#
#320000
0!
0%
02
01
08
06
19
0;
#325000
1!
12
16
1:
09
14
1/
1"
#330000
0!
1%
02
11
18
06
19
1;
#335000
1!
12
16
1<
0;
15
10
1#
#340000
0!
0%
02
01
08
06
09
1;
#345000
1!
12
16
0:
19
04
0/
0"
#350000
0!
1%
02
11
18
06
09
0;
#355000
1!
12
16
0<
1;
05
00
0#
#360000
0!
0%
02
01
08
06
19
0;
#365000
1!
12
16
1:
09
14
1/
1"
#370000
0!
1%
02
11
18
06
19
1;
#375000
1!
12
16
1<
0;
15
10
1#
#380000
0!
0%
02
01
08
06
09
1;
#385000
1!
12
16
0:
19
04
0/
0"
#390000
0!
1%
02
11
18
06
09
0;
#395000
1!
12
16
0<
1;
05
00
0#
#400000
0!
0%
02
01
08
06
19
0;
#405000
1!
12
16
1:
09
14
1/
1"
#410000
0!
1%
02
11
18
06
19
1;
#415000
1!
12
16
1<
0;
15
10
1#
#420000
0!
0%
02
01
08
06
09
1;
#425000
1!
12
16
0:
19
04
0/
0"
#430000
0!
1%
02
11
18
06
09
0;
#435000
1!
12
16
0<
1;
05
00
0#
#440000
0!
0%
02
01
08
06
19
0;
#445000
1!
12
16
1:
09
14
1/
1"
#450000
0!
1%
02
11
18
06
19
1;
#455000
1!
12
16
1<
0;
15
10
1#
#460000
0!
0%
02
01
08
06
09
1;
#465000
1!
12
16
0:
19
04
0/
0"
#470000
0!
1%
02
11
18
06
09
0;
#475000
1!
12
16
0<
1;
05
00
0#
#480000
0!
0%
02
01
08
06
19
0;
#485000
1!
12
16
1:
09
14
1/
1"
#490000
0!
1%
02
11
18
06
19
1;
#495000
1!
12
16
1<
0;
15
10
1#
#500000
0!
0%
02
01
08
06
09
1;
#505000
1!
12
16
0:
19
04
0/
0"
#510000
0!
1%
02
11
18
06
09
0;
#515000
1!
12
16
0<
1;
05
00
0#
#520000
0!
0%
02
01
08
06
19
0;
#525000
1!
12
16
1:
09
14
1/
1"
#530000
0!
1%
02
11
18
06
19
1;
#535000
1!
12
16
1<
0;
15
10
1#
#540000
0!
0%
02
01
08
06
09
1;
#545000
1!
12
16
0:
19
04
0/
0"
#550000
0!
1%
02
11
18
06
09
0;
#555000
1!
12
16
0<
1;
05
00
0#
#560000
0!
0%
02
01
08
06
19
0;
#565000
1!
12
16
1:
09
14
1/
1"
#570000
0!
1%
02
11
18
06
19
1;
#575000
1!
12
16
1<
0;
15
10
1#
#580000
0!
0%
02
01
08
06
09
1;
#585000
1!
12
16
0:
19
04
0/
0"
#590000
0!
1%
02
11
18
06
09
0;
#595000
1!
12
16
0<
1;
05
00
0#
#600000
0!
0%
02
01
08
06
19
0;
#605000
1!
12
16
1:
09
14
1/
1"
#610000
0!
1%
02
11
18
06
19
1;
#615000
1!
12
16
1<
0;
15
10
1#
#620000
0!
0%
02
01
08
06
09
1;
#625000
1!
12
16
0:
19
04
0/
0"
#630000
0!
1%
02
11
18
06
09
0;
#635000
1!
12
16
0<
1;
05
00
0#
#640000
0!
0%
02
01
08
06
19
0;
#645000
1!
12
16
1:
09
14
1/
1"
#650000
0!
1%
02
11
18
06
19
1;
#655000
1!
12
16
1<
0;
15
10
1#
#660000
0!
0%
02
01
08
06
09
1;
#665000
1!
12
16
0:
19
04
0/
0"
#670000
0!
1%
02
11
18
06
09
0;
#675000
1!
12
16
0<
1;
05
00
0#
#680000
0!
0%
02
01
08
06
19
0;
#685000
1!
12
16
1:
09
14
1/
1"
#690000
0!
1%
02
11
18
06
19
1;
#695000
1!
12
16
1<
0;
15
10
1#
#700000
0!
0%
02
01
08
06
09
1;
#705000
1!
12
16
0:
19
04
0/
0"
#710000
0!
1%
02
11
18
06
09
0;
#715000
1!
12
16
0<
1;
05
00
0#
#720000
0!
0%
02
01
08
06
19
0;
#725000
1!
12
16
1:
09
14
1/
1"
#730000
0!
1%
02
11
18
06
19
1;
#735000
1!
12
16
1<
0;
15
10
1#
#740000
0!
0%
02
01
08
06
09
1;
#745000
1!
12
16
0:
19
04
0/
0"
#750000
0!
1%
02
11
18
06
09
0;
#755000
1!
12
16
0<
1;
05
00
0#
#760000
0!
0%
02
01
08
06
19
0;
#765000
1!
12
16
1:
09
14
1/
1"
#770000
0!
1%
02
11
18
06
19
1;
#775000
1!
12
16
1<
0;
15
10
1#
#780000
0!
0%
02
01
08
06
09
1;
#785000
1!
12
16
0:
19
04
0/
0"
#790000
0!
1%
02
11
18
06
09
0;
#795000
1!
12
16
0<
1;
05
00
0#
#800000
0!
0%
02
01
08
06
19
0;
#805000
1!
12
16
1:
09
14
1/
1"
#810000
0!
1%
02
11
18
06
19
1;
#815000
1!
12
16
1<
0;
15
10
1#
#820000
0!
0%
02
01
08
06
09
1;
#825000
1!
12
16
0:
19
04
0/
0"
#830000
0!
1%
02
11
18
06
09
0;
#835000
1!
12
16
0<
1;
05
00
0#
#840000
0!
0%
02
01
08
06
19
0;
#845000
1!
12
16
1:
09
14
1/
1"
#850000
0!
1%
02
11
18
06
19
1;
#855000
1!
12
16
1<
0;
15
10
1#
#860000
0!
0%
02
01
08
06
09
1;
#865000
1!
12
16
0:
19
04
0/
0"
#870000
0!
1%
02
11
18
06
09
0;
#875000
1!
12
16
0<
1;
05
00
0#
#880000
0!
0%
02
01
08
06
19
0;
#885000
1!
12
16
1:
09
14
1/
1"
#890000
0!
1%
02
11
18
06
19
1;
#895000
1!
12
16
1<
0;
15
10
1#
#900000
0!
0%
02
01
08
06
09
1;
#905000
1!
12
16
0:
19
04
0/
0"
#910000
0!
1%
02
11
18
06
09
0;
#915000
1!
12
16
0<
1;
05
00
0#
#920000
0!
0%
02
01
08
06
19
0;
#925000
1!
12
16
1:
09
14
1/
1"
#930000
0!
1%
02
11
18
06
19
1;
#935000
1!
12
16
1<
0;
15
10
1#
#940000
0!
0%
02
01
08
06
09
1;
#945000
1!
12
16
0:
19
04
0/
0"
#950000
0!
1%
02
11
18
06
09
0;
#955000
1!
12
16
0<
1;
05
00
0#
#960000
0!
0%
02
01
08
06
19
0;
#965000
1!
12
16
1:
09
14
1/
1"
#970000
0!
1%
02
11
18
06
19
1;
#975000
1!
12
16
1<
0;
15
10
1#
#980000
0!
0%
02
01
08
06
09
1;
#985000
1!
12
16
0:
19
04
0/
0"
#990000
0!
1%
02
11
18
06
09
0;
#995000
1!
12
16
0<
1;
05
00
0#
