1 ano/2 Semestre/LSD/Pratico/Prat01/Parte1/simulation/qsim/GateDemo.msim.vcd
$comment
	File created using the following command:
		vcd file GateDemo.msim.vcd -direction
$end
$date
	Thu Feb 22 10:08:37 2024
$end
$version
	Questa Intel Starter FPGA Edition Version 2021.2
$end
$timescale
	1ps
$end

$scope module gatedemo_vhd_vec_tst $end
$var wire 1 ! LEDR [0] $end
$var wire 1 " SW [1] $end
$var wire 1 # SW [0] $end

$scope module i1 $end
$var wire 1 $ gnd $end
$var wire 1 % vcc $end
$var wire 1 & unknown $end
$var wire 1 ' devoe $end
$var wire 1 ( devclrn $end
$var wire 1 ) devpor $end
$var wire 1 * ww_devoe $end
$var wire 1 + ww_devclrn $end
$var wire 1 , ww_devpor $end
$var wire 1 - ww_LEDR [0] $end
$var wire 1 . ww_SW [1] $end
$var wire 1 / ww_SW [0] $end
$var wire 1 0 \LEDR[0]~output_o\ $end
$var wire 1 1 \SW[1]~input_o\ $end
$var wire 1 2 \SW[0]~input_o\ $end
$var wire 1 3 \inst~combout\ $end
$upscope $end
$upscope $end
$enddefinitions $end
#0
$dumpvars
0$
1%
x&
1'
1(
1)
1*
1+
1,
00
01
02
03
0"
0#
0.
0/
0!
0-
$end
#20000
1"
1.
11
#40000
0"
1#
1/
0.
01
12
#60000
1"
1.
11
13
10
1-
1!
#80000
0"
0#
0/
0.
01
02
03
00
0-
0!
#100000
1"
1.
11
#120000
0"
1#
1/
0.
01
12
#140000
1"
1.
11
13
10
1-
1!
#160000
0"
0#
0/
0.
01
02
03
00
0-
0!
#180000
1"
1.
11
#200000
0"
1#
1/
0.
01
12
#220000
1"
1.
11
13
10
1-
1!
#240000
0"
0#
0/
0.
01
02
03
00
0-
0!
#260000
1"
1.
11
#280000
0"
1#
1/
0.
01
12
#300000
1"
1.
11
13
10
1-
1!
#320000
0"
0#
0/
0.
01
02
03
00
0-
0!
#340000
1"
1.
11
#360000
0"
1#
1/
0.
01
12
#380000
1"
1.
11
13
10
1-
1!
#400000
0"
0#
0/
0.
01
02
03
00
0-
0!
#420000
1"
1.
11
#440000
0"
1#
1/
0.
01
12
#460000
1"
1.
11
13
10
1-
1!
#480000
0"
0#
0/
0.
01
02
03
00
0-
0!
#500000
1"
1.
11
#520000
0"
1#
1/
0.
01
12
#540000
1"
1.
11
13
10
1-
1!
#560000
0"
0#
0/
0.
01
02
03
00
0-
0!
#580000
1"
1.
11
#600000
0"
1#
1/
0.
01
12
#620000
1"
1.
11
13
10
1-
1!
#640000
0"
0#
0/
0.
01
02
03
00
0-
0!
#660000
1"
1.
11
#680000
0"
1#
1/
0.
01
12
#700000
1"
1.
11
13
10
1-
1!
#720000
0"
0#
0/
0.
01
02
03
00
0-
0!
#740000
1"
1.
11
#760000
0"
1#
1/
0.
01
12
#780000
1"
1.
11
13
10
1-
1!
#800000
0"
0#
0/
0.
01
02
03
00
0-
0!
#820000
1"
1.
11
#840000
0"
1#
1/
0.
01
12
#860000
1"
1.
11
13
10
1-
1!
#880000
0"
0#
0/
0.
01
02
03
00
0-
0!
#900000
1"
1.
11
#920000
0"
1#
1/
0.
01
12
#940000
1"
1.
11
13
10
1-
1!
#960000
0"
0#
0/
0.
01
02
03
00
0-
0!
#980000
1"
1.
11
