1 ano/ISD/ISDP2treino/simulation/qsim/AddSubDemo.msim.vcd
$comment
	File created using the following command:
		vcd file AddSubDemo.msim.vcd -direction
$end
$date
	Wed Dec 20 20:43:16 2023
$end
$version
	Questa Intel Starter FPGA Edition Version 2021.2
$end
$timescale
	1ps
$end

$scope module addsubdemo_vhd_vec_tst $end
$var wire 1 ! A [3] $end
$var wire 1 " A [2] $end
$var wire 1 # A [1] $end
$var wire 1 $ A [0] $end
$var wire 1 % ADDorSUB $end
$var wire 1 & B [3] $end
$var wire 1 ' B [2] $end
$var wire 1 ( B [1] $end
$var wire 1 ) B [0] $end
$var wire 1 * Overflow $end
$var wire 1 + S [3] $end
$var wire 1 , S [2] $end
$var wire 1 - S [1] $end
$var wire 1 . S [0] $end

$scope module i1 $end
$var wire 1 / gnd $end
$var wire 1 0 vcc $end
$var wire 1 1 unknown $end
$var wire 1 2 devoe $end
$var wire 1 3 devclrn $end
$var wire 1 4 devpor $end
$var wire 1 5 ww_devoe $end
$var wire 1 6 ww_devclrn $end
$var wire 1 7 ww_devpor $end
$var wire 1 8 ww_Overflow $end
$var wire 1 9 ww_ADDorSUB $end
$var wire 1 : ww_A [3] $end
$var wire 1 ; ww_A [2] $end
$var wire 1 < ww_A [1] $end
$var wire 1 = ww_A [0] $end
$var wire 1 > ww_B [3] $end
$var wire 1 ? ww_B [2] $end
$var wire 1 @ ww_B [1] $end
$var wire 1 A ww_B [0] $end
$var wire 1 B ww_S [3] $end
$var wire 1 C ww_S [2] $end
$var wire 1 D ww_S [1] $end
$var wire 1 E ww_S [0] $end
$var wire 1 F \Overflow~output_o\ $end
$var wire 1 G \S[3]~output_o\ $end
$var wire 1 H \S[2]~output_o\ $end
$var wire 1 I \S[1]~output_o\ $end
$var wire 1 J \S[0]~output_o\ $end
$var wire 1 K \B[3]~input_o\ $end
$var wire 1 L \ADDorSUB~input_o\ $end
$var wire 1 M \A[3]~input_o\ $end
$var wire 1 N \B[2]~input_o\ $end
$var wire 1 O \A[2]~input_o\ $end
$var wire 1 P \B[1]~input_o\ $end
$var wire 1 Q \A[1]~input_o\ $end
$var wire 1 R \A[0]~input_o\ $end
$var wire 1 S \B[0]~input_o\ $end
$var wire 1 T \inst|inst|inst5~0_combout\ $end
$var wire 1 U \inst|inst1|inst5~0_combout\ $end
$var wire 1 V \inst|inst2|inst5~0_combout\ $end
$var wire 1 W \inst|abc~0_combout\ $end
$var wire 1 X \inst|inst3|inst1~0_combout\ $end
$var wire 1 Y \inst|inst2|inst1~0_combout\ $end
$var wire 1 Z \inst|inst1|inst1~combout\ $end
$var wire 1 [ \inst|inst|inst1~0_combout\ $end
$upscope $end
$upscope $end
$enddefinitions $end
#0
$dumpvars
0%
0*
0/
10
x1
12
13
14
15
16
17
08
09
0F
0G
0H
0I
0J
0K
0L
0M
0N
0O
0P
0Q
0R
0S
0T
0U
0V
0W
0X
0Y
0Z
0[
0B
0C
0D
0E
0!
0"
0#
0$
0&
0'
0(
0)
0:
0;
0<
0=
0>
0?
0@
0A
0+
0,
0-
0.
$end
#10000
1$
1)
1=
1A
1S
1R
1T
1Z
1I
1D
1-
#20000
0$
0)
1#
1(
0=
1<
0A
1@
1P
0S
1Q
0R
0T
1U
1Y
0Z
0I
1H
0D
1C
0-
1,
#30000
1$
1)
1=
1A
1S
1R
1T
1Z
1I
1D
1-
#40000
0$
0)
0#
0(
1"
1'
0=
0<
1;
0A
0@
1?
1N
0P
0S
1O
0Q
0R
0T
0U
1V
1W
1X
0Y
0Z
0I
0H
1G
1F
0D
0C
1B
18
0-
0,
1+
1*
#50000
1$
1)
1=
1A
1S
1R
1T
1Z
1I
1D
1-
#60000
0$
0)
1#
1(
0=
1<
0A
1@
1P
0S
1Q
0R
0T
1U
1Y
0Z
0I
1H
0D
1C
0-
1,
#70000
1$
1)
1=
1A
1S
1R
1T
1Z
1I
1D
1-
#80000
0$
0)
0#
0(
0"
0'
1!
1&
0=
0<
0;
1:
0A
0@
0?
1>
1K
0N
0P
0S
1M
0O
0Q
0R
0T
0U
0V
0W
1W
0X
0Y
0Z
0F
08
0I
0H
0G
1F
0*
0D
0C
0B
18
0-
0,
0+
1*
#90000
1$
1)
1=
1A
1S
1R
1T
1Z
1I
1D
1-
#100000
0$
0)
1#
1(
0=
1<
0A
1@
1P
0S
1Q
0R
0T
1U
1Y
0Z
0I
1H
0D
1C
0-
1,
#110000
1$
1)
1=
1A
1S
1R
1T
1Z
1I
1D
1-
#120000
0$
0)
0#
0(
1"
1'
0=
0<
1;
0A
0@
1?
1N
0P
0S
1O
0Q
0R
0T
0U
1V
0W
1X
0Y
0Z
0I
0H
1G
0F
0D
0C
1B
08
0-
0,
1+
0*
#130000
1$
1)
1=
1A
1S
1R
1T
1Z
1I
1D
1-
#140000
0$
0)
1#
1(
0=
1<
0A
1@
1P
0S
1Q
0R
0T
1U
1Y
0Z
0I
1H
0D
1C
0-
1,
#150000
1$
1)
1=
1A
1S
1R
1T
1Z
1I
1D
1-
#160000
0$
0)
0#
0(
0"
0'
0!
0&
1%
0=
0<
0;
0:
0A
0@
0?
0>
19
1L
0K
0N
0P
0S
0M
0O
0Q
0R
0X
0Y
0Z
0I
0H
0G
0D
0C
0B
0-
0,
0+
#170000
1$
1)
1=
1A
1S
1R
#180000
0$
0)
1#
1(
0=
1<
0A
1@
1P
0S
1Q
0R
#190000
1$
1)
1=
1A
1S
1R
#200000
0$
0)
0#
0(
1"
1'
0=
0<
1;
0A
0@
1?
1N
0P
0S
1O
0Q
0R
#210000
1$
1)
1=
1A
1S
1R
#220000
0$
0)
1#
1(
0=
1<
0A
1@
1P
0S
1Q
0R
#230000
1$
1)
1=
1A
1S
1R
#240000
0$
0)
0#
0(
0"
0'
1!
1&
0=
0<
0;
1:
0A
0@
0?
1>
1K
0N
0P
0S
1M
0O
0Q
0R
#250000
1$
1)
1=
1A
1S
1R
#260000
0$
0)
1#
1(
0=
1<
0A
1@
1P
0S
1Q
0R
#270000
1$
1)
1=
1A
1S
1R
#280000
0$
0)
0#
0(
1"
1'
0=
0<
1;
0A
0@
1?
1N
0P
0S
1O
0Q
0R
#290000
1$
1)
1=
1A
1S
1R
#300000
0$
0)
1#
1(
0=
1<
0A
1@
1P
0S
1Q
0R
#310000
1$
1)
1=
1A
1S
1R
#320000
0$
0)
0#
0(
0"
0'
0!
0&
0%
0=
0<
0;
0:
0A
0@
0?
0>
09
0L
0K
0N
0P
0S
0M
0O
0Q
0R
0T
0U
0V
1W
1X
1Y
1Z
0W
0X
0Y
0Z
1I
1H
1G
1F
1D
1C
1B
18
0I
0H
0G
0F
1-
1,
1+
1*
0D
0C
0B
08
0-
0,
0+
0*
#330000
1$
1)
1=
1A
1S
1R
1T
1Z
1I
1D
1-
#340000
0$
0)
1#
1(
0=
1<
0A
1@
1P
0S
1Q
0R
0T
1U
1Y
0Z
0I
1H
0D
1C
0-
1,
#350000
1$
1)
1=
1A
1S
1R
1T
1Z
1I
1D
1-
#360000
0$
0)
0#
0(
1"
1'
0=
0<
1;
0A
0@
1?
1N
0P
0S
1O
0Q
0R
0T
0U
1V
1W
1X
0Y
0Z
0I
0H
1G
1F
0D
0C
1B
18
0-
0,
1+
1*
#370000
1$
1)
1=
1A
1S
1R
1T
1Z
1I
1D
1-
#380000
0$
0)
1#
1(
0=
1<
0A
1@
1P
0S
1Q
0R
0T
1U
1Y
0Z
0I
1H
0D
1C
0-
1,
#390000
1$
1)
1=
1A
1S
1R
1T
1Z
1I
1D
1-
#400000
0$
0)
0#
0(
0"
0'
1!
1&
0=
0<
0;
1:
0A
0@
0?
1>
1K
0N
0P
0S
1M
0O
0Q
0R
0T
0U
0V
0W
1W
0X
0Y
0Z
0F
08
0I
0H
0G
1F
0*
0D
0C
0B
18
0-
0,
0+
1*
#410000
1$
1)
1=
1A
1S
1R
1T
1Z
1I
1D
1-
#420000
0$
0)
1#
1(
0=
1<
0A
1@
1P
0S
1Q
0R
0T
1U
1Y
0Z
0I
1H
0D
1C
0-
1,
#430000
1$
1)
1=
1A
1S
1R
1T
1Z
1I
1D
1-
#440000
0$
0)
0#
0(
1"
1'
0=
0<
1;
0A
0@
1?
1N
0P
0S
1O
0Q
0R
0T
0U
1V
0W
1X
0Y
0Z
0I
0H
1G
0F
0D
0C
1B
08
0-
0,
1+
0*
#450000
1$
1)
1=
1A
1S
1R
1T
1Z
1I
1D
1-
#460000
0$
0)
1#
1(
0=
1<
0A
1@
1P
0S
1Q
0R
0T
1U
1Y
0Z
0I
1H
0D
1C
0-
1,
#470000
1$
1)
1=
1A
1S
1R
1T
1Z
1I
1D
1-
#480000
0$
0)
0#
0(
0"
0'
0!
0&
1%
0=
0<
0;
0:
0A
0@
0?
0>
19
1L
0K
0N
0P
0S
0M
0O
0Q
0R
0X
0Y
0Z
0I
0H
0G
0D
0C
0B
0-
0,
0+
#490000
1$
1)
1=
1A
1S
1R
#500000
0$
0)
1#
1(
0=
1<
0A
1@
1P
0S
1Q
0R
#510000
1$
1)
1=
1A
1S
1R
#520000
0$
0)
0#
0(
1"
1'
0=
0<
1;
0A
0@
1?
1N
0P
0S
1O
0Q
0R
#530000
1$
1)
1=
1A
1S
1R
#540000
0$
0)
1#
1(
0=
1<
0A
1@
1P
0S
1Q
0R
#550000
1$
1)
1=
1A
1S
1R
#560000
0$
0)
0#
0(
0"
0'
1!
1&
0=
0<
0;
1:
0A
0@
0?
1>
1K
0N
0P
0S
1M
0O
0Q
0R
#570000
1$
1)
1=
1A
1S
1R
#580000
0$
0)
1#
1(
0=
1<
0A
1@
1P
0S
1Q
0R
#590000
1$
1)
1=
1A
1S
1R
#600000
0$
0)
0#
0(
1"
1'
0=
0<
1;
0A
0@
1?
1N
0P
0S
1O
0Q
0R
#610000
1$
1)
1=
1A
1S
1R
#620000
0$
0)
1#
1(
0=
1<
0A
1@
1P
0S
1Q
0R
#630000
1$
1)
1=
1A
1S
1R
#640000
0$
0)
0#
0(
0"
0'
0!
0&
0%
0=
0<
0;
0:
0A
0@
0?
0>
09
0L
0K
0N
0P
0S
0M
0O
0Q
0R
0T
0U
0V
1W
1X
1Y
1Z
0W
0X
0Y
0Z
1I
1H
1G
1F
1D
1C
1B
18
0I
0H
0G
0F
1-
1,
1+
1*
0D
0C
0B
08
0-
0,
0+
0*
#650000
1$
1)
1=
1A
1S
1R
1T
1Z
1I
1D
1-
#660000
0$
0)
1#
1(
0=
1<
0A
1@
1P
0S
1Q
0R
0T
1U
1Y
0Z
0I
1H
0D
1C
0-
1,
#670000
1$
1)
1=
1A
1S
1R
1T
1Z
1I
1D
1-
#680000
0$
0)
0#
0(
1"
1'
0=
0<
1;
0A
0@
1?
1N
0P
0S
1O
0Q
0R
0T
0U
1V
1W
1X
0Y
0Z
0I
0H
1G
1F
0D
0C
1B
18
0-
0,
1+
1*
#690000
1$
1)
1=
1A
1S
1R
1T
1Z
1I
1D
1-
#700000
0$
0)
1#
1(
0=
1<
0A
1@
1P
0S
1Q
0R
0T
1U
1Y
0Z
0I
1H
0D
1C
0-
1,
#710000
1$
1)
1=
1A
1S
1R
1T
1Z
1I
1D
1-
#720000
0$
0)
0#
0(
0"
0'
1!
1&
0=
0<
0;
1:
0A
0@
0?
1>
1K
0N
0P
0S
1M
0O
0Q
0R
0T
0U
0V
0W
1W
0X
0Y
0Z
0F
08
0I
0H
0G
1F
0*
0D
0C
0B
18
0-
0,
0+
1*
#730000
1$
1)
1=
1A
1S
1R
1T
1Z
1I
1D
1-
#740000
0$
0)
1#
1(
0=
1<
0A
1@
1P
0S
1Q
0R
0T
1U
1Y
0Z
0I
1H
0D
1C
0-
1,
#750000
1$
1)
1=
1A
1S
1R
1T
1Z
1I
1D
1-
#760000
0$
0)
0#
0(
1"
1'
0=
0<
1;
0A
0@
1?
1N
0P
0S
1O
0Q
0R
0T
0U
1V
0W
1X
0Y
0Z
0I
0H
1G
0F
0D
0C
1B
08
0-
0,
1+
0*
#770000
1$
1)
1=
1A
1S
1R
1T
1Z
1I
1D
1-
#780000
0$
0)
1#
1(
0=
1<
0A
1@
1P
0S
1Q
0R
0T
1U
1Y
0Z
0I
1H
0D
1C
0-
1,
#790000
1$
1)
1=
1A
1S
1R
1T
1Z
1I
1D
1-
#800000
0$
0)
0#
0(
0"
0'
0!
0&
1%
0=
0<
0;
0:
0A
0@
0?
0>
19
1L
0K
0N
0P
0S
0M
0O
0Q
0R
0X
0Y
0Z
0I
0H
0G
0D
0C
0B
0-
0,
0+
#810000
1$
1)
1=
1A
1S
1R
#820000
0$
0)
1#
1(
0=
1<
0A
1@
1P
0S
1Q
0R
#830000
1$
1)
1=
1A
1S
1R
#840000
0$
0)
0#
0(
1"
1'
0=
0<
1;
0A
0@
1?
1N
0P
0S
1O
0Q
0R
#850000
1$
1)
1=
1A
1S
1R
#860000
0$
0)
1#
1(
0=
1<
0A
1@
1P
0S
1Q
0R
#870000
1$
1)
1=
1A
1S
1R
#880000
0$
0)
0#
0(
0"
0'
1!
1&
0=
0<
0;
1:
0A
0@
0?
1>
1K
0N
0P
0S
1M
0O
0Q
0R
#890000
1$
1)
1=
1A
1S
1R
#900000
0$
0)
1#
1(
0=
1<
0A
1@
1P
0S
1Q
0R
#910000
1$
1)
1=
1A
1S
1R
#920000
0$
0)
0#
0(
1"
1'
0=
0<
1;
0A
0@
1?
1N
0P
0S
1O
0Q
0R
#930000
1$
1)
1=
1A
1S
1R
#940000
0$
0)
1#
1(
0=
1<
0A
1@
1P
0S
1Q
0R
#950000
1$
1)
1=
1A
1S
1R
#960000
0$
0)
0#
0(
0"
0'
0!
0&
0%
0=
0<
0;
0:
0A
0@
0?
0>
09
0L
0K
0N
0P
0S
0M
0O
0Q
0R
0T
0U
0V
1W
1X
1Y
1Z
0W
0X
0Y
0Z
1I
1H
1G
1F
1D
1C
1B
18
0I
0H
0G
0F
1-
1,
1+
1*
0D
0C
0B
08
0-
0,
0+
0*
#970000
1$
1)
1=
1A
1S
1R
1T
1Z
1I
1D
1-
#980000
0$
0)
1#
1(
0=
1<
0A
1@
1P
0S
1Q
0R
0T
1U
1Y
0Z
0I
1H
0D
1C
0-
1,
#990000
1$
1)
1=
1A
1S
1R
1T
1Z
1I
1D
1-
