1 ano/1 Semestre/1º ANO/ISD/TESTES/TESTE2/Teste 2.0/simulation/qsim/GrayCode.msim.vcd
$comment
	File created using the following command:
		vcd file GrayCode.msim.vcd -direction
$end
$date
	Mon Jan 24 23:04:25 2022
$end
$version
	ModelSim Version 2020.1
$end
$timescale
	1ps
$end

$scope module graycode_vhd_vec_tst $end
$var wire 1 ! CLK $end
$var wire 1 " Q [2] $end
$var wire 1 # Q [1] $end
$var wire 1 $ Q [0] $end
$var wire 1 % RESET $end

$scope module i1 $end
$var wire 1 & gnd $end
$var wire 1 ' vcc $end
$var wire 1 ( unknown $end
$var wire 1 ) devoe $end
$var wire 1 * devclrn $end
$var wire 1 + devpor $end
$var wire 1 , ww_devoe $end
$var wire 1 - ww_devclrn $end
$var wire 1 . ww_devpor $end
$var wire 1 / ww_Q [2] $end
$var wire 1 0 ww_Q [1] $end
$var wire 1 1 ww_Q [0] $end
$var wire 1 2 ww_RESET $end
$var wire 1 3 ww_CLK $end
$var wire 1 4 \Q[2]~output_o\ $end
$var wire 1 5 \Q[1]~output_o\ $end
$var wire 1 6 \Q[0]~output_o\ $end
$var wire 1 7 \CLK~input_o\ $end
$var wire 1 8 \inst200~0_combout\ $end
$var wire 1 9 \RESET~input_o\ $end
$var wire 1 : \Q0~q\ $end
$var wire 1 ; \Q1~0_combout\ $end
$var wire 1 < \Q1~q\ $end
$var wire 1 = \Q2~0_combout\ $end
$var wire 1 > \Q2~q\ $end
$upscope $end
$upscope $end
$enddefinitions $end
#0
$dumpvars
0!
1%
0&
1'
x(
1)
1*
1+
1,
1-
1.
12
03
04
05
06
07
18
19
0:
0;
0<
0=
0>
0/
00
01
0"
0#
0$
$end
#20000
1!
13
17
1:
1;
16
11
1$
#40000
0!
03
07
#60000
1!
13
17
1<
08
15
10
1#
#80000
0!
03
07
#100000
1!
13
17
0:
1=
06
01
0$
#120000
0!
03
07
#140000
1!
13
17
1>
18
14
1/
1"
#160000
0!
03
07
#180000
1!
13
17
1:
0;
16
11
1$
#200000
0!
03
07
#220000
1!
13
17
0<
08
05
00
0#
#240000
0!
03
07
#260000
1!
13
17
0:
0=
06
01
0$
#280000
0!
03
07
#300000
1!
13
17
0>
18
04
0/
0"
#320000
0!
03
07
#340000
1!
13
17
1:
1;
16
11
1$
#360000
0!
03
07
#380000
1!
13
17
1<
08
15
10
1#
#400000
0!
03
07
#420000
1!
13
17
0:
1=
06
01
0$
#440000
0!
03
07
#460000
1!
13
17
1>
18
14
1/
1"
#480000
0!
03
07
#500000
1!
13
17
1:
0;
16
11
1$
#520000
0!
03
07
#540000
1!
13
17
0<
08
05
00
0#
#560000
0!
03
07
#580000
1!
13
17
0:
0=
06
01
0$
#600000
0!
03
07
#620000
1!
13
17
0>
18
04
0/
0"
#640000
0!
03
07
#660000
1!
13
17
1:
1;
16
11
1$
#680000
0!
03
07
#700000
1!
13
17
1<
08
15
10
1#
#720000
0!
03
07
#740000
1!
13
17
0:
1=
06
01
0$
#760000
0!
03
07
#780000
1!
13
17
1>
18
14
1/
1"
#800000
0!
03
07
#820000
1!
13
17
1:
0;
16
11
1$
#840000
0!
03
07
#860000
1!
13
17
0<
08
05
00
0#
#880000
0!
03
07
#900000
1!
13
17
0:
0=
06
01
0$
#920000
0!
03
07
#940000
1!
13
17
0>
18
04
0/
0"
#960000
0!
03
07
#980000
1!
13
17
1:
1;
16
11
1$
