1 ano/1 Semestre/ISD/S2/ISDP2treino/simulation/qsim/Guiao11a13.msim.vcd
$comment
	File created using the following command:
		vcd file Guiao11a13.msim.vcd -direction
$end
$date
	Thu Dec 21 12:33:12 2023
$end
$version
	Questa Intel Starter FPGA Edition Version 2021.2
$end
$timescale
	1ps
$end

$scope module seqdet1011completo_vhd_vec_tst $end
$var wire 1 ! clk $end
$var wire 1 " Q0 $end
$var wire 1 # Q1 $end
$var wire 1 $ reset $end
$var wire 1 % x $end
$var wire 1 & y $end

$scope module i1 $end
$var wire 1 ' gnd $end
$var wire 1 ( vcc $end
$var wire 1 ) unknown $end
$var wire 1 * devoe $end
$var wire 1 + devclrn $end
$var wire 1 , devpor $end
$var wire 1 - ww_devoe $end
$var wire 1 . ww_devclrn $end
$var wire 1 / ww_devpor $end
$var wire 1 0 ww_Q1 $end
$var wire 1 1 ww_clk $end
$var wire 1 2 ww_reset $end
$var wire 1 3 ww_x $end
$var wire 1 4 ww_Q0 $end
$var wire 1 5 ww_y $end
$var wire 1 6 \Q1~output_o\ $end
$var wire 1 7 \Q0~output_o\ $end
$var wire 1 8 \y~output_o\ $end
$var wire 1 9 \clk~input_o\ $end
$var wire 1 : \reset~input_o\ $end
$var wire 1 ; \x~input_o\ $end
$var wire 1 < \inst5~0_combout\ $end
$var wire 1 = \inst3~q\ $end
$var wire 1 > \inst4~0_combout\ $end
$var wire 1 ? \inst2~q\ $end
$var wire 1 @ \inst6~combout\ $end
$upscope $end
$upscope $end
$enddefinitions $end
#0
$dumpvars
0!
0"
0#
1$
1%
0&
0'
1(
x)
1*
1+
1,
1-
1.
1/
00
01
12
13
04
05
06
07
08
09
1:
1;
1<
0=
0>
0?
0@
$end
#5000
1!
11
19
1=
0<
1>
17
14
1"
#10000
0!
01
09
#15000
1!
11
19
0=
1?
16
07
10
04
1#
0"
#20000
0!
0%
01
03
0;
09
1<
#25000
1!
11
19
1=
0<
0>
17
14
1"
#30000
0!
01
09
#35000
1!
11
19
0=
0?
06
07
00
04
0#
0"
#40000
0!
1%
01
13
1;
09
1<
#45000
1!
11
19
1=
0<
1>
17
14
1"
#50000
0!
01
09
#55000
1!
11
19
0=
1?
16
07
10
04
1#
0"
#60000
0!
0%
01
03
0;
09
1<
#65000
1!
11
19
1=
0<
0>
17
14
1"
#70000
0!
01
09
#75000
1!
11
19
0=
0?
06
07
00
04
0#
0"
#80000
0!
1%
01
13
1;
09
1<
#85000
1!
11
19
1=
0<
1>
17
14
1"
#90000
0!
0%
01
03
0;
09
0>
#95000
1!
11
19
0=
07
04
0"
#100000
0!
01
09
#105000
1!
11
19
#110000
0!
1%
01
13
1;
09
1<
#115000
1!
11
19
1=
0<
1>
17
14
1"
#120000
0!
01
09
#125000
1!
11
19
0=
1?
16
07
10
04
1#
0"
#130000
0!
01
09
#135000
1!
11
19
#140000
0!
0%
01
03
0;
09
1<
#145000
1!
11
19
1=
0<
0>
17
14
1"
#150000
0!
1%
01
13
1;
09
1<
1@
18
15
1&
#155000
1!
11
19
0?
0<
1>
0@
06
00
08
0#
05
0&
#160000
0!
0%
01
03
0;
09
0>
#165000
1!
11
19
0=
07
04
0"
#170000
0!
1%
01
13
1;
09
1<
#175000
1!
11
19
1=
0<
1>
17
14
1"
#180000
0!
0%
01
03
0;
09
0>
#185000
1!
11
19
0=
07
04
0"
#190000
0!
1%
01
13
1;
09
1<
#195000
1!
11
19
1=
0<
1>
17
14
1"
#200000
0!
0%
01
03
0;
09
0>
#205000
1!
11
19
0=
07
04
0"
#210000
0!
1%
01
13
1;
09
1<
#215000
1!
11
19
1=
0<
1>
17
14
1"
#220000
0!
01
09
#225000
1!
11
19
0=
1?
16
07
10
04
1#
0"
#230000
0!
0%
01
03
0;
09
1<
#235000
1!
11
19
1=
0<
0>
17
14
1"
#240000
0!
1%
01
13
1;
09
1<
1@
18
15
1&
#245000
1!
11
19
0?
0<
1>
0@
06
00
08
0#
05
0&
#250000
0!
01
09
#255000
1!
11
19
0=
1?
16
07
10
04
1#
0"
#260000
0!
01
09
#265000
1!
11
19
#270000
0!
01
09
#275000
1!
11
19
#280000
0!
0%
01
03
0;
09
1<
#285000
1!
11
19
1=
0<
0>
17
14
1"
#290000
0!
01
09
#295000
1!
11
19
0=
0?
06
07
00
04
0#
0"
#300000
0!
1%
01
13
1;
09
1<
#305000
1!
11
19
1=
0<
1>
17
14
1"
#310000
0!
01
09
#315000
1!
11
19
0=
1?
16
07
10
04
1#
0"
#320000
0!
0%
01
03
0;
09
1<
#325000
1!
11
19
1=
0<
0>
17
14
1"
#330000
0!
1%
01
13
1;
09
1<
1@
18
15
1&
#335000
1!
11
19
0?
0<
1>
0@
06
00
08
0#
05
0&
#340000
0!
01
09
#345000
1!
11
19
0=
1?
16
07
10
04
1#
0"
#350000
0!
01
09
#355000
1!
11
19
#360000
0!
01
09
#365000
1!
11
19
#370000
0!
0%
01
03
0;
09
1<
#375000
1!
11
19
1=
0<
0>
17
14
1"
#380000
0!
01
09
#385000
1!
11
19
0=
0?
06
07
00
04
0#
0"
#390000
0!
01
09
#395000
1!
11
19
#400000
0!
1%
01
13
1;
09
1<
#405000
1!
11
19
1=
0<
1>
17
14
1"
#410000
0!
0%
01
03
0;
09
0>
#415000
1!
11
19
0=
07
04
0"
#420000
0!
1%
01
13
1;
09
1<
#425000
1!
11
19
1=
0<
1>
17
14
1"
#430000
0!
01
09
#435000
1!
11
19
0=
1?
16
07
10
04
1#
0"
#440000
0!
0%
01
03
0;
09
1<
#445000
1!
11
19
1=
0<
0>
17
14
1"
#450000
0!
01
09
#455000
1!
11
19
0=
0?
06
07
00
04
0#
0"
#460000
0!
01
09
#465000
1!
11
19
#470000
0!
1%
01
13
1;
09
1<
#475000
1!
11
19
1=
0<
1>
17
14
1"
#480000
0!
0%
01
03
0;
09
0>
#485000
1!
11
19
0=
07
04
0"
#490000
0!
01
09
#495000
1!
11
19
#500000
0!
1%
01
13
1;
09
1<
#505000
1!
11
19
1=
0<
1>
17
14
1"
#510000
0!
0%
01
03
0;
09
0>
#515000
1!
11
19
0=
07
04
0"
#520000
0!
1%
01
13
1;
09
1<
#525000
1!
11
19
1=
0<
1>
17
14
1"
#530000
0!
01
09
#535000
1!
11
19
0=
1?
16
07
10
04
1#
0"
#540000
0!
01
09
#545000
1!
11
19
#550000
0!
01
09
#555000
1!
11
19
#560000
0!
01
09
#565000
1!
11
19
#570000
0!
01
09
#575000
1!
11
19
#580000
0!
01
09
#585000
1!
11
19
#590000
0!
0%
01
03
0;
09
1<
#595000
1!
11
19
1=
0<
0>
17
14
1"
#600000
0!
01
09
#605000
1!
11
19
0=
0?
06
07
00
04
0#
0"
#610000
0!
1%
01
13
1;
09
1<
#615000
1!
11
19
1=
0<
1>
17
14
1"
#620000
0!
0%
01
03
0;
09
0>
#625000
1!
11
19
0=
07
04
0"
#630000
0!
1%
01
13
1;
09
1<
#635000
1!
11
19
1=
0<
1>
17
14
1"
#640000
0!
01
09
#645000
1!
11
19
0=
1?
16
07
10
04
1#
0"
#650000
0!
0%
01
03
0;
09
1<
#655000
1!
11
19
1=
0<
0>
17
14
1"
#660000
0!
01
09
#665000
1!
11
19
0=
0?
06
07
00
04
0#
0"
#670000
0!
1%
01
13
1;
09
1<
#675000
1!
11
19
1=
0<
1>
17
14
1"
#680000
0!
01
09
#685000
1!
11
19
0=
1?
16
07
10
04
1#
0"
#690000
0!
0%
01
03
0;
09
1<
#695000
1!
11
19
1=
0<
0>
17
14
1"
#700000
0!
01
09
#705000
1!
11
19
0=
0?
06
07
00
04
0#
0"
#710000
0!
01
09
#715000
1!
11
19
#720000
0!
1%
01
13
1;
09
1<
#725000
1!
11
19
1=
0<
1>
17
14
1"
#730000
0!
01
09
#735000
1!
11
19
0=
1?
16
07
10
04
1#
0"
#740000
0!
01
09
#745000
1!
11
19
#750000
0!
01
09
#755000
1!
11
19
#760000
0!
01
09
#765000
1!
11
19
#770000
0!
0%
01
03
0;
09
1<
#775000
1!
11
19
1=
0<
0>
17
14
1"
#780000
0!
01
09
#785000
1!
11
19
0=
0?
06
07
00
04
0#
0"
#790000
0!
1%
01
13
1;
09
1<
#795000
1!
11
19
1=
0<
1>
17
14
1"
#800000
0!
01
09
#805000
1!
11
19
0=
1?
16
07
10
04
1#
0"
#810000
0!
0%
01
03
0;
09
1<
#815000
1!
11
19
1=
0<
0>
17
14
1"
#820000
0!
01
09
#825000
1!
11
19
0=
0?
06
07
00
04
0#
0"
#830000
0!
01
09
#835000
1!
11
19
#840000
0!
1%
01
13
1;
09
1<
#845000
1!
11
19
1=
0<
1>
17
14
1"
#850000
0!
01
09
#855000
1!
11
19
0=
1?
16
07
10
04
1#
0"
#860000
0!
0%
01
03
0;
09
1<
#865000
1!
11
19
1=
0<
0>
17
14
1"
#870000
0!
1%
01
13
1;
09
1<
1@
18
15
1&
#875000
1!
11
19
0?
0<
1>
0@
06
00
08
0#
05
0&
#880000
0!
01
09
#885000
1!
11
19
0=
1?
16
07
10
04
1#
0"
#890000
0!
0%
01
03
0;
09
1<
#895000
1!
11
19
1=
0<
0>
17
14
1"
#900000
0!
1%
01
13
1;
09
1<
1@
18
15
1&
#905000
1!
11
19
0?
0<
1>
0@
06
00
08
0#
05
0&
#910000
0!
01
09
#915000
1!
11
19
0=
1?
16
07
10
04
1#
0"
#920000
0!
01
09
#925000
1!
11
19
#930000
0!
0%
01
03
0;
09
1<
#935000
1!
11
19
1=
0<
0>
17
14
1"
#940000
0!
1%
01
13
1;
09
1<
1@
18
15
1&
#945000
1!
11
19
0?
0<
1>
0@
06
00
08
0#
05
0&
#950000
0!
01
09
#955000
1!
11
19
0=
1?
16
07
10
04
1#
0"
#960000
0!
01
09
#965000
1!
11
19
#970000
0!
0%
01
03
0;
09
1<
#975000
1!
11
19
1=
0<
0>
17
14
1"
#980000
0!
1%
01
13
1;
09
1<
1@
18
15
1&
#985000
1!
11
19
0?
0<
1>
0@
06
00
08
0#
05
0&
#990000
0!
01
09
#995000
1!
11
19
0=
1?
16
07
10
04
1#
0"
