1 ano/1 Semestre/ISD/Avaliação/S1/ISDSim1/simulation/qsim/MuxSim.msim.vcd
$comment
	File created using the following command:
		vcd file MuxSim.msim.vcd -direction
$end
$date
	Thu Nov 30 17:47:45 2023
$end
$version
	Questa Intel Starter FPGA Edition Version 2021.2
$end
$timescale
	1ps
$end

$scope module muxsim_vhd_vec_tst $end
$var wire 1 ! A $end
$var wire 1 " B $end
$var wire 1 # C $end
$var wire 1 $ D $end
$var wire 1 % Y $end

$scope module i1 $end
$var wire 1 & gnd $end
$var wire 1 ' vcc $end
$var wire 1 ( unknown $end
$var wire 1 ) devoe $end
$var wire 1 * devclrn $end
$var wire 1 + devpor $end
$var wire 1 , ww_devoe $end
$var wire 1 - ww_devclrn $end
$var wire 1 . ww_devpor $end
$var wire 1 / ww_Y $end
$var wire 1 0 ww_D $end
$var wire 1 1 ww_A $end
$var wire 1 2 ww_B $end
$var wire 1 3 ww_C $end
$var wire 1 4 \Y~output_o\ $end
$var wire 1 5 \B~input_o\ $end
$var wire 1 6 \C~input_o\ $end
$var wire 1 7 \D~input_o\ $end
$var wire 1 8 \A~input_o\ $end
$var wire 1 9 \inst|or~0_combout\ $end
$var wire 1 : \inst|ALT_INV_or~0_combout\ $end
$upscope $end
$upscope $end
$enddefinitions $end
#0
$dumpvars
0!
0"
0#
0$
1%
0&
1'
x(
1)
1*
1+
1,
1-
1.
1/
00
01
02
03
14
05
06
07
08
09
1:
$end
#10000
1$
10
17
19
0:
04
0/
0%
#20000
0$
1#
00
13
16
07
09
1:
14
1/
1%
#30000
1$
10
17
#40000
0$
0#
1"
00
03
12
15
06
07
#50000
1$
10
17
19
0:
04
0/
0%
#60000
0$
1#
00
13
16
07
#70000
1$
10
17
#80000
0$
0#
0"
1!
00
03
02
11
18
05
06
07
#90000
1$
10
17
09
1:
14
1/
1%
#100000
0$
1#
00
13
16
07
#110000
1$
10
17
#120000
0$
0#
1"
00
03
12
15
06
07
19
0:
04
0/
0%
#130000
1$
10
17
09
1:
14
1/
1%
#140000
0$
1#
00
13
16
07
19
0:
04
0/
0%
#150000
1$
10
17
#160000
0$
0#
0"
0!
00
03
02
01
08
05
06
07
09
1:
14
1/
1%
#170000
1$
10
17
19
0:
04
0/
0%
#180000
0$
1#
00
13
16
07
09
1:
14
1/
1%
#190000
1$
10
17
#200000
0$
0#
1"
00
03
12
15
06
07
#210000
1$
10
17
19
0:
04
0/
0%
#220000
0$
1#
00
13
16
07
#230000
1$
10
17
#240000
0$
0#
0"
1!
00
03
02
11
18
05
06
07
#250000
1$
10
17
09
1:
14
1/
1%
#260000
0$
1#
00
13
16
07
#270000
1$
10
17
#280000
0$
0#
1"
00
03
12
15
06
07
19
0:
04
0/
0%
#290000
1$
10
17
09
1:
14
1/
1%
#300000
0$
1#
00
13
16
07
19
0:
04
0/
0%
#310000
1$
10
17
#320000
0$
0#
0"
0!
00
03
02
01
08
05
06
07
09
1:
14
1/
1%
#330000
1$
10
17
19
0:
04
0/
0%
#340000
0$
1#
00
13
16
07
09
1:
14
1/
1%
#350000
1$
10
17
#360000
0$
0#
1"
00
03
12
15
06
07
#370000
1$
10
17
19
0:
04
0/
0%
#380000
0$
1#
00
13
16
07
#390000
1$
10
17
#400000
0$
0#
0"
1!
00
03
02
11
18
05
06
07
#410000
1$
10
17
09
1:
14
1/
1%
#420000
0$
1#
00
13
16
07
#430000
1$
10
17
#440000
0$
0#
1"
00
03
12
15
06
07
19
0:
04
0/
0%
#450000
1$
10
17
09
1:
14
1/
1%
#460000
0$
1#
00
13
16
07
19
0:
04
0/
0%
#470000
1$
10
17
#480000
0$
0#
0"
0!
00
03
02
01
08
05
06
07
09
1:
14
1/
1%
#490000
1$
10
17
19
0:
04
0/
0%
#500000
0$
1#
00
13
16
07
09
1:
14
1/
1%
#510000
1$
10
17
#520000
0$
0#
1"
00
03
12
15
06
07
#530000
1$
10
17
19
0:
04
0/
0%
#540000
0$
1#
00
13
16
07
#550000
1$
10
17
#560000
0$
0#
0"
1!
00
03
02
11
18
05
06
07
#570000
1$
10
17
09
1:
14
1/
1%
#580000
0$
1#
00
13
16
07
#590000
1$
10
17
#600000
0$
0#
1"
00
03
12
15
06
07
19
0:
04
0/
0%
#610000
1$
10
17
09
1:
14
1/
1%
#620000
0$
1#
00
13
16
07
19
0:
04
0/
0%
#630000
1$
10
17
#640000
0$
0#
0"
0!
00
03
02
01
08
05
06
07
09
1:
14
1/
1%
#650000
1$
10
17
19
0:
04
0/
0%
#660000
0$
1#
00
13
16
07
09
1:
14
1/
1%
#670000
1$
10
17
#680000
0$
0#
1"
00
03
12
15
06
07
#690000
1$
10
17
19
0:
04
0/
0%
#700000
0$
1#
00
13
16
07
#710000
1$
10
17
#720000
0$
0#
0"
1!
00
03
02
11
18
05
06
07
#730000
1$
10
17
09
1:
14
1/
1%
#740000
0$
1#
00
13
16
07
#750000
1$
10
17
#760000
0$
0#
1"
00
03
12
15
06
07
19
0:
04
0/
0%
#770000
1$
10
17
09
1:
14
1/
1%
#780000
0$
1#
00
13
16
07
19
0:
04
0/
0%
#790000
1$
10
17
#800000
0$
0#
0"
0!
00
03
02
01
08
05
06
07
09
1:
14
1/
1%
#810000
1$
10
17
19
0:
04
0/
0%
#820000
0$
1#
00
13
16
07
09
1:
14
1/
1%
#830000
1$
10
17
#840000
0$
0#
1"
00
03
12
15
06
07
#850000
1$
10
17
19
0:
04
0/
0%
#860000
0$
1#
00
13
16
07
#870000
1$
10
17
#880000
0$
0#
0"
1!
00
03
02
11
18
05
06
07
#890000
1$
10
17
09
1:
14
1/
1%
#900000
0$
1#
00
13
16
07
#910000
1$
10
17
#920000
0$
0#
1"
00
03
12
15
06
07
19
0:
04
0/
0%
#930000
1$
10
17
09
1:
14
1/
1%
#940000
0$
1#
00
13
16
07
19
0:
04
0/
0%
#950000
1$
10
17
#960000
0$
0#
0"
0!
00
03
02
01
08
05
06
07
09
1:
14
1/
1%
#970000
1$
10
17
19
0:
04
0/
0%
#980000
0$
1#
00
13
16
07
09
1:
14
1/
1%
#990000
1$
10
17
