1 ano/1º ANO/ISD/TESTES/TESTE2/Teste 2.0/simulation/qsim/Counter.msim.vcd
$comment
	File created using the following command:
		vcd file Counter.msim.vcd -direction
$end
$date
	Mon Jan 24 23:30:01 2022
$end
$version
	ModelSim Version 2020.1
$end
$timescale
	1ps
$end

$scope module specialcount_vhd_vec_tst $end
$var wire 1 ! CLK $end
$var wire 1 " Q [3] $end
$var wire 1 # Q [2] $end
$var wire 1 $ Q [1] $end
$var wire 1 % Q [0] $end

$scope module i1 $end
$var wire 1 & gnd $end
$var wire 1 ' vcc $end
$var wire 1 ( unknown $end
$var wire 1 ) devoe $end
$var wire 1 * devclrn $end
$var wire 1 + devpor $end
$var wire 1 , ww_devoe $end
$var wire 1 - ww_devclrn $end
$var wire 1 . ww_devpor $end
$var wire 1 / ww_Q [3] $end
$var wire 1 0 ww_Q [2] $end
$var wire 1 1 ww_Q [1] $end
$var wire 1 2 ww_Q [0] $end
$var wire 1 3 ww_CLK $end
$var wire 1 4 \Q[3]~output_o\ $end
$var wire 1 5 \Q[2]~output_o\ $end
$var wire 1 6 \Q[1]~output_o\ $end
$var wire 1 7 \Q[0]~output_o\ $end
$var wire 1 8 \CLK~input_o\ $end
$var wire 1 9 \inst|sub|71~combout\ $end
$var wire 1 : \inst|sub|34~q\ $end
$var wire 1 ; \inst|sub|110~combout\ $end
$var wire 1 < \inst|sub|111~q\ $end
$var wire 1 = \inst|sub|121~0_combout\ $end
$var wire 1 > \inst|sub|122~q\ $end
$var wire 1 ? \inst|sub|132~combout\ $end
$var wire 1 @ \inst|sub|134~q\ $end
$upscope $end
$upscope $end
$enddefinitions $end
#0
$dumpvars
0!
0&
1'
x(
1)
1*
1+
1,
1-
1.
03
04
05
06
07
08
19
0:
0;
0<
0=
0>
0?
0@
0/
00
01
02
0"
0#
0$
0%
$end
#20000
1!
13
18
1:
09
1;
17
12
1%
#40000
0!
03
08
#60000
1!
13
18
0:
1<
19
16
07
11
02
0%
1$
#80000
0!
03
08
#100000
1!
13
18
1:
09
0;
1=
17
12
1%
#120000
0!
03
08
#140000
1!
13
18
0:
0<
1>
19
15
06
07
10
01
02
0%
0$
1#
#160000
0!
03
08
#180000
1!
13
18
1:
09
1;
17
12
1%
#200000
0!
03
08
#220000
1!
13
18
0:
1<
19
16
07
11
02
0%
1$
#240000
0!
03
08
#260000
1!
13
18
1:
09
0;
0=
1?
17
12
1%
#280000
0!
03
08
#300000
1!
13
18
0:
0<
0>
1@
19
14
05
06
07
1/
00
01
02
0%
0$
0#
1"
#320000
0!
03
08
#340000
1!
13
18
1:
09
1;
17
12
1%
#360000
0!
03
08
#380000
1!
13
18
0:
1<
0;
0?
16
07
11
02
0%
1$
#400000
0!
03
08
#420000
1!
13
18
0<
0@
19
04
06
0/
01
0$
0"
#440000
0!
03
08
#460000
1!
13
18
1:
09
1;
17
12
1%
#480000
0!
03
08
#500000
1!
13
18
0:
1<
19
16
07
11
02
0%
1$
#520000
0!
03
08
#540000
1!
13
18
1:
09
0;
1=
17
12
1%
#560000
0!
03
08
#580000
1!
13
18
0:
0<
1>
19
15
06
07
10
01
02
0%
0$
1#
#600000
0!
03
08
#620000
1!
13
18
1:
09
1;
17
12
1%
#640000
0!
03
08
#660000
1!
13
18
0:
1<
19
16
07
11
02
0%
1$
#680000
0!
03
08
#700000
1!
13
18
1:
09
0;
0=
1?
17
12
1%
#720000
0!
03
08
#740000
1!
13
18
0:
0<
0>
1@
19
14
05
06
07
1/
00
01
02
0%
0$
0#
1"
#760000
0!
03
08
#780000
1!
13
18
1:
09
1;
17
12
1%
#800000
0!
03
08
#820000
1!
13
18
0:
1<
0;
0?
16
07
11
02
0%
1$
#840000
0!
03
08
#860000
1!
13
18
0<
0@
19
04
06
0/
01
0$
0"
#880000
0!
03
08
#900000
1!
13
18
1:
09
1;
17
12
1%
#920000
0!
03
08
#940000
1!
13
18
0:
1<
19
16
07
11
02
0%
1$
#960000
0!
03
08
#980000
1!
13
18
1:
09
0;
1=
17
12
1%
