1 ano/2 Semestre/LSD/Pratico/Prat05/Parte 2/simulation/qsim/AccN_Demo.msim.vcd
$comment
	File created using the following command:
		vcd file AccN_Demo.msim.vcd -direction
$end
$date
	Thu Mar 21 11:06:42 2024
$end
$version
	Questa Intel Starter FPGA Edition Version 2021.2
$end
$timescale
	1ps
$end

$scope module accn_vhd_vec_tst $end
$var wire 1 ! clk $end
$var wire 1 " dataIn [7] $end
$var wire 1 # dataIn [6] $end
$var wire 1 $ dataIn [5] $end
$var wire 1 % dataIn [4] $end
$var wire 1 & dataIn [3] $end
$var wire 1 ' dataIn [2] $end
$var wire 1 ( dataIn [1] $end
$var wire 1 ) dataIn [0] $end
$var wire 1 * dataOut [7] $end
$var wire 1 + dataOut [6] $end
$var wire 1 , dataOut [5] $end
$var wire 1 - dataOut [4] $end
$var wire 1 . dataOut [3] $end
$var wire 1 / dataOut [2] $end
$var wire 1 0 dataOut [1] $end
$var wire 1 1 dataOut [0] $end
$var wire 1 2 enable $end
$var wire 1 3 overflow $end
$var wire 1 4 reset $end

$scope module i1 $end
$var wire 1 5 gnd $end
$var wire 1 6 vcc $end
$var wire 1 7 unknown $end
$var wire 1 8 devoe $end
$var wire 1 9 devclrn $end
$var wire 1 : devpor $end
$var wire 1 ; ww_devoe $end
$var wire 1 < ww_devclrn $end
$var wire 1 = ww_devpor $end
$var wire 1 > ww_dataIn [7] $end
$var wire 1 ? ww_dataIn [6] $end
$var wire 1 @ ww_dataIn [5] $end
$var wire 1 A ww_dataIn [4] $end
$var wire 1 B ww_dataIn [3] $end
$var wire 1 C ww_dataIn [2] $end
$var wire 1 D ww_dataIn [1] $end
$var wire 1 E ww_dataIn [0] $end
$var wire 1 F ww_dataOut [7] $end
$var wire 1 G ww_dataOut [6] $end
$var wire 1 H ww_dataOut [5] $end
$var wire 1 I ww_dataOut [4] $end
$var wire 1 J ww_dataOut [3] $end
$var wire 1 K ww_dataOut [2] $end
$var wire 1 L ww_dataOut [1] $end
$var wire 1 M ww_dataOut [0] $end
$var wire 1 N ww_enable $end
$var wire 1 O ww_clk $end
$var wire 1 P ww_reset $end
$var wire 1 Q ww_overflow $end
$var wire 1 R \dataOut[0]~output_o\ $end
$var wire 1 S \dataOut[1]~output_o\ $end
$var wire 1 T \dataOut[2]~output_o\ $end
$var wire 1 U \dataOut[3]~output_o\ $end
$var wire 1 V \dataOut[4]~output_o\ $end
$var wire 1 W \dataOut[5]~output_o\ $end
$var wire 1 X \dataOut[6]~output_o\ $end
$var wire 1 Y \dataOut[7]~output_o\ $end
$var wire 1 Z \overflow~output_o\ $end
$var wire 1 [ \clk~input_o\ $end
$var wire 1 \ \dataIn[0]~input_o\ $end
$var wire 1 ] \Adder_0|Soma[0]~0_combout\ $end
$var wire 1 ^ \reset~input_o\ $end
$var wire 1 _ \RegN_0|dataOut~0_combout\ $end
$var wire 1 ` \enable~input_o\ $end
$var wire 1 a \RegN_0|dataOut[0]~1_combout\ $end
$var wire 1 b \dataIn[1]~input_o\ $end
$var wire 1 c \Adder_0|Soma[0]~1\ $end
$var wire 1 d \Adder_0|Soma[1]~2_combout\ $end
$var wire 1 e \RegN_0|dataOut~2_combout\ $end
$var wire 1 f \dataIn[2]~input_o\ $end
$var wire 1 g \Adder_0|Soma[1]~3\ $end
$var wire 1 h \Adder_0|Soma[2]~4_combout\ $end
$var wire 1 i \RegN_0|dataOut~3_combout\ $end
$var wire 1 j \dataIn[3]~input_o\ $end
$var wire 1 k \Adder_0|Soma[2]~5\ $end
$var wire 1 l \Adder_0|Soma[3]~6_combout\ $end
$var wire 1 m \RegN_0|dataOut~4_combout\ $end
$var wire 1 n \dataIn[4]~input_o\ $end
$var wire 1 o \Adder_0|Soma[3]~7\ $end
$var wire 1 p \Adder_0|Soma[4]~8_combout\ $end
$var wire 1 q \RegN_0|dataOut~5_combout\ $end
$var wire 1 r \dataIn[5]~input_o\ $end
$var wire 1 s \Adder_0|Soma[4]~9\ $end
$var wire 1 t \Adder_0|Soma[5]~10_combout\ $end
$var wire 1 u \RegN_0|dataOut~6_combout\ $end
$var wire 1 v \dataIn[6]~input_o\ $end
$var wire 1 w \Adder_0|Soma[5]~11\ $end
$var wire 1 x \Adder_0|Soma[6]~12_combout\ $end
$var wire 1 y \RegN_0|dataOut~7_combout\ $end
$var wire 1 z \dataIn[7]~input_o\ $end
$var wire 1 { \Adder_0|Soma[6]~13\ $end
$var wire 1 | \Adder_0|Soma[7]~14_combout\ $end
$var wire 1 } \RegN_0|dataOut~8_combout\ $end
$var wire 1 ~ \overflow~0_combout\ $end
$var wire 1 !! \RegN_0|dataOut\ [7] $end
$var wire 1 "! \RegN_0|dataOut\ [6] $end
$var wire 1 #! \RegN_0|dataOut\ [5] $end
$var wire 1 $! \RegN_0|dataOut\ [4] $end
$var wire 1 %! \RegN_0|dataOut\ [3] $end
$var wire 1 &! \RegN_0|dataOut\ [2] $end
$var wire 1 '! \RegN_0|dataOut\ [1] $end
$var wire 1 (! \RegN_0|dataOut\ [0] $end
$upscope $end
$upscope $end
$enddefinitions $end
#0
$dumpvars
0!
02
03
04
05
16
x7
18
19
1:
1;
1<
1=
0N
0O
0P
0Q
0R
0S
0T
0U
0V
0W
0X
0Y
0Z
0[
0\
0]
0^
0_
0`
0a
0b
0c
0d
0e
0f
1g
0h
0i
0j
0k
0l
0m
0n
1o
0p
0q
0r
0s
0t
0u
0v
1w
0x
0y
0z
0{
0|
0}
0~
0"
0#
0$
0%
0&
0'
0(
0)
0>
0?
0@
0A
0B
0C
0D
0E
0!!
0"!
0#!
0$!
0%!
0&!
0'!
0(!
0*
0+
0,
0-
0.
0/
00
01
0F
0G
0H
0I
0J
0K
0L
0M
$end
#10000
1!
1O
1[
#20000
0!
1)
0O
1E
1\
0[
1]
1_
#30000
1!
1O
1[
#40000
0!
0)
1(
0O
0E
1D
1b
0\
0[
0]
1d
1e
0_
#50000
1!
1O
1[
#60000
0!
1)
12
0O
1E
1N
1`
1\
0[
1]
1a
1_
#70000
1!
1O
1[
1(!
1'!
0d
0g
0]
1c
1d
0_
1h
0e
1S
1R
1i
1e
1L
1M
11
10
#80000
0!
0)
0(
1'
0O
0E
0D
1C
1f
0b
0\
0[
1]
0c
0d
0h
1k
1l
0i
0e
1d
1g
1_
1h
0k
1e
1m
0l
1i
0m
#90000
1!
1O
1[
1&!
0h
1k
1l
0i
1T
1m
1K
1/
#100000
0!
1)
0O
1E
1\
0[
0]
1c
0d
0g
0_
1h
0e
1i
#110000
1!
1O
1[
0(!
0'!
1%!
0l
0o
1d
1g
1]
0c
0d
1_
0h
1e
1p
0m
1U
0S
0R
1q
0i
0e
1J
0L
0M
01
00
1.
#120000
0!
0)
1(
0O
0E
1D
1b
0\
0[
0]
1d
1e
0_
#130000
1!
1O
1[
1'!
0&!
0%!
1$!
0p
1s
1l
1o
1h
0k
0d
0g
0h
1k
0e
0l
1i
1p
0s
1m
1t
0q
1V
0U
0T
1S
1u
0t
1q
0m
1l
0i
1I
0J
0K
1L
10
0/
0.
1-
1m
0u
#140000
0!
1)
0O
1E
1\
0[
1]
1_
#150000
1!
1O
1[
1(!
0'!
1%!
0l
0o
1d
1g
0]
1c
0d
0g
0_
1h
0k
1e
0p
1s
0m
1U
0S
1R
1t
0q
1l
1o
1i
0h
1k
0e
1J
0L
1M
11
00
1.
0l
0o
0i
1p
0s
1m
1u
0t
1q
0p
1s
0m
1t
0q
0u
1u
#160000
0!
0)
0(
0'
1&
0O
0E
0D
0C
1B
1j
0f
0b
0\
0[
1]
0c
1d
1g
1h
0k
1l
1m
0l
1i
0h
1e
0d
1_
0e
0i
0m
#170000
1!
1O
1[
0%!
0$!
1#!
0t
0w
1p
0s
1l
1o
0p
1m
1t
1w
1q
1x
0u
1W
0V
0U
1y
0x
1u
0q
1H
0I
0J
0.
0-
1,
0y
#180000
0!
1)
0O
1E
1\
0[
0]
1c
1d
0_
1e
#190000
1!
1O
1[
0(!
1'!
1%!
0l
0o
0d
0g
1]
0c
1d
1g
1_
1h
0e
1p
0m
1U
1S
0R
1q
1i
0h
1e
1J
1L
0M
01
10
1.
0i
#200000
0!
0)
1(
0O
0E
1D
1b
0\
0[
0]
0d
0g
1h
0e
0_
1i
#210000
1!
1O
1[
0'!
1&!
0%!
1$!
0p
1s
1l
1o
0h
1k
1d
1g
1h
0k
1e
0l
0o
0i
1p
0s
1m
0t
0w
0q
1V
0U
1T
0S
1x
0u
1t
1w
1q
0p
1s
0m
1l
1o
1i
1I
0J
1K
0L
00
1/
0.
1-
1p
0s
1m
0t
0w
0q
0x
1u
1y
0y
1x
0u
1t
1w
1q
0x
1u
1y
0y
#220000
0!
1)
0O
1E
1\
0[
1]
1_
#230000
1!
1O
1[
1(!
1'!
1%!
0l
0o
0d
0g
0]
1c
1d
0_
0h
1k
0e
0p
1s
0m
1U
1S
1R
0t
0w
0q
1l
0i
1e
1J
1L
1M
11
10
1.
1m
1x
0u
1y
#240000
0!
0)
0(
1'
0O
0E
0D
1C
1f
0b
0\
0[
1]
0c
0d
1h
1i
0e
1d
1g
1_
0h
1e
0i
#250000
1!
1O
1[
0&!
0$!
0#!
1"!
0x
1{
1t
1w
1p
0s
1h
0k
0l
1i
0t
1q
1x
0{
1u
1|
0y
1X
0W
0V
0T
1}
1~
0|
1y
0u
0m
1G
0H
0I
0K
0/
0-
0,
1+
0}
0~
1Z
1Q
0Z
13
0Q
03
#260000
0!
1)
0O
1E
1\
0[
0]
1c
0d
0g
0_
0h
1k
0e
1l
0i
1m
#270000
1!
1O
1[
0(!
0'!
1$!
0p
1s
1d
1g
1]
0c
0d
1_
1h
0k
1e
1t
0q
1V
0S
0R
1u
0l
1i
0e
1I
0L
0M
01
00
1-
0m
#280000
0!
0)
1(
0O
0E
1D
1b
0\
0[
0]
1d
1e
0_
#290000
1!
1O
1[
1'!
1&!
0%!
0$!
1#!
0t
0w
1p
0s
1l
1o
0h
1k
0d
0g
1h
0e
0l
0o
0i
0p
1m
1t
1w
1q
0x
1{
0u
1W
0V
0U
1T
1S
1|
0y
1x
0{
1u
0q
1p
0m
1i
1H
0I
0J
1K
1L
10
1/
0.
0-
1,
1q
0|
1y
1}
1~
0}
0~
1Z
1Q
0Z
13
0Q
03
#300000
0!
1)
0O
1E
1\
0[
1]
1_
#310000
1!
1O
1[
1(!
0'!
1$!
0p
1s
1d
1g
0]
1c
0d
0g
0_
0h
1e
0t
0w
0q
1V
0S
1R
0x
1{
0u
0i
1h
0e
1I
0L
1M
11
00
1-
1i
1|
0y
1}
1~
1Z
1Q
13
#320000
0!
0)
0(
0'
0&
1%
0O
0E
0D
0C
0B
1A
1n
0j
0f
0b
0\
0[
1]
0c
1d
1g
0h
1l
1o
1p
1q
0p
1m
0i
1h
0k
1e
0d
1_
0e
0l
1i
0q
0m
#330000
1!
1O
1[
0$!
0#!
0"!
1!!
0|
0~
1x
0{
1t
1w
1p
0s
0t
1q
0x
1u
1|
1y
0}
1~
1Y
0X
0W
0V
1}
0~
0y
0u
1F
0G
0H
0I
0Z
0-
0,
0+
1*
0Q
1Z
03
1Q
0Z
13
0Q
03
#340000
0!
1)
0O
1E
1\
0[
0]
1c
1d
0_
1e
#350000
1!
1O
1[
0(!
1'!
1$!
0p
1s
0d
0g
1]
0c
1d
1g
1_
0h
1k
0e
1t
0q
1V
1S
0R
1u
1l
0i
1h
0k
1e
1I
1L
0M
01
10
1-
0l
1i
1m
0m
#360000
0!
0)
1(
0O
0E
1D
1b
0\
0[
0]
0d
0g
0h
1k
0e
0_
1l
0i
1m
#370000
1!
1O
1[
0'!
0&!
1%!
0$!
1#!
0t
0w
1p
0s
0l
0o
1h
0k
1d
1g
0h
1e
1l
1o
1i
0p
1s
0m
1t
1w
1q
1x
0u
1W
0V
1U
0T
0S
1y
0x
1u
0t
0w
0q
1p
0s
1m
0i
1H
0I
1J
0K
0L
00
0/
1.
0-
1,
1t
1w
1q
1x
0u
0y
1y
0x
1u
0y
#380000
0!
1)
0O
1E
1\
0[
1]
1_
#390000
1!
1O
1[
1(!
1'!
1$!
0p
1s
0d
0g
0]
1c
1d
0_
1h
0e
0t
0w
0q
1V
1S
1R
1x
0u
1i
1e
1I
1L
1M
11
10
1-
1y
#400000
0!
0)
0(
1'
0O
0E
0D
1C
1f
0b
0\
0[
1]
0c
0d
0h
1k
0l
0o
0i
0e
1d
1g
1_
1h
0k
1e
1p
0m
1q
1l
1o
1i
0p
1m
0q
#410000
1!
1O
1[
1&!
0$!
0#!
1"!
0x
1{
1t
1w
1p
0s
0h
1k
0l
0o
0i
0t
1q
1x
0{
1u
0|
0y
1X
0W
0V
1T
0}
1~
1|
1y
0u
0p
1s
0m
1G
0H
0I
1K
1/
0-
0,
1+
1t
0q
1}
0~
1u
1Z
1Q
0Z
13
0Q
03
#420000
0!
1)
0O
1E
1\
0[
0]
1c
0d
0g
0_
1h
0e
1i
#430000
1!
1O
1[
0(!
0'!
0%!
1#!
0t
0w
1l
1o
1d
1g
1]
0c
0d
1_
0h
1e
1p
0s
1m
0x
1{
0u
1W
0U
0S
0R
0|
0y
1t
1w
1q
0i
0e
1H
0J
0L
0M
01
00
0.
1,
1x
0{
1u
0}
1~
1|
1y
1}
0~
1Z
1Q
13
0Z
0Q
03
#440000
0!
0)
1(
0O
0E
1D
1b
0\
0[
0]
1d
1e
0_
#450000
1!
1O
1[
1'!
0&!
1%!
1$!
0p
1s
0l
0o
1h
0k
0d
0g
0h
1k
0e
1l
1o
1i
1p
0m
0t
0w
0q
1V
1U
0T
1S
0x
1{
0u
1q
0p
1m
0l
0o
0i
1I
1J
0K
1L
10
0/
1.
1-
1p
0m
0q
0|
0y
0}
1~
1q
1Z
1Q
13
#460000
0!
1)
0O
1E
1\
0[
1]
1_
#470000
1!
1O
1[
1(!
0'!
0%!
0#!
0"!
0!!
1|
0~
1x
0{
1t
1w
1l
1o
1d
1g
0]
1c
0d
0g
0_
1h
0k
1e
0p
1m
0x
1u
0|
1y
1}
1~
0Y
0X
0W
0U
0S
1R
0}
0~
0y
0q
0l
1i
0h
1k
0e
0F
0G
0H
0J
0L
1M
0Z
11
00
0.
0,
0+
0*
1l
0i
0m
0Q
1Z
03
1m
1Q
0Z
13
0Q
03
#480000
0!
0)
0(
0'
1&
0O
0E
0D
0C
1B
1j
0f
0b
0\
0[
1]
0c
1d
1g
1h
0k
0l
0o
1p
0m
1l
1o
1i
0h
1e
0d
1_
0e
0i
0p
1m
1q
0q
#490000
1!
1O
1[
1%!
0$!
1#!
0t
0w
1p
0s
0l
0o
0p
1s
0m
1t
1w
1q
1x
0u
1W
0V
1U
1y
0x
1u
0t
0w
0q
1H
0I
1J
1.
0-
1,
1x
0u
0y
1y
#500000
0!
1)
0O
1E
1\
0[
0]
1c
1d
0_
1e
#510000
1!
1O
1[
0(!
1'!
0%!
0#!
1"!
0x
1{
1t
1w
1l
1o
0d
0g
1]
0c
1d
1g
1_
1h
0e
1p
0s
1m
1x
0{
1u
1|
0y
1X
0W
0U
1S
0R
1}
1~
0|
1y
0t
1q
1i
0h
1e
1G
0H
0J
1L
0M
01
10
0.
0,
1+
0i
0u
0}
0~
1Z
1Q
0Z
13
0Q
03
#520000
0!
0)
1(
0O
0E
1D
1b
0\
0[
0]
0d
0g
1h
0e
0_
1i
#530000
1!
1O
1[
0'!
1&!
1%!
1$!
0p
1s
0l
0o
0h
1k
1d
1g
1h
0k
1e
1l
0i
1p
0m
1t
0q
1V
1U
1T
0S
1u
1q
1m
0l
1i
1I
1J
1K
0L
00
1/
1.
1-
0m
#540000
0!
1)
0O
1E
1\
0[
1]
1_
#550000
1!
1O
1[
1(!
1'!
0%!
1#!
0t
0w
1l
1o
0d
0g
0]
1c
1d
0_
0h
1k
0e
0p
1m
0x
1{
0u
1W
0U
1S
1R
1|
0y
0q
0l
0o
0i
1e
1H
0J
1L
1M
11
10
0.
1,
1p
0m
1}
1~
1q
1Z
1Q
13
#560000
0!
0)
0(
1'
0O
0E
0D
1C
1f
0b
0\
0[
1]
0c
0d
1h
1i
0e
1d
1g
1_
0h
1e
0i
#570000
1!
1O
1[
0&!
0#!
0"!
1!!
0|
0~
1x
0{
1t
1w
1h
0k
1l
1o
1i
0x
1u
1|
1y
0}
1~
1Y
0X
0W
0T
1}
0~
0y
0p
1m
1F
0G
0H
0K
0Z
0/
0,
0+
1*
0q
0Q
1Z
03
1Q
0Z
13
0Q
03
#580000
0!
1)
0O
1E
1\
0[
0]
1c
0d
0g
0_
0h
1k
0e
0l
0o
0i
1p
0m
1q
#590000
1!
1O
1[
0(!
0'!
1#!
0t
0w
1d
1g
1]
0c
0d
1_
1h
0k
1e
1x
0u
1W
0S
0R
1y
1l
1o
1i
0e
1H
0L
0M
01
00
1,
0p
1m
0q
#600000
0!
0)
1(
0O
0E
1D
1b
0\
0[
0]
1d
1e
0_
#610000
1!
1O
1[
1'!
1&!
1%!
0$!
0#!
1"!
0x
1{
1t
1w
1p
0s
0l
0o
0h
1k
0d
0g
1h
0e
1l
0i
0p
1s
0m
0t
1q
1x
0{
1u
0|
0y
1X
0W
0V
1U
1T
1S
0}
1~
1|
1y
0u
1t
0q
1m
1i
1G
0H
0I
1J
1K
1L
10
1/
1.
0-
0,
1+
1u
1}
0~
1Z
1Q
0Z
13
0Q
03
#620000
0!
1)
0O
1E
1\
0[
1]
1_
#630000
1!
1O
1[
1(!
0'!
1#!
0t
0w
1d
1g
0]
1c
0d
0g
0_
0h
1e
0x
1{
0u
1W
0S
1R
0|
0y
0i
1h
0e
1H
0L
1M
11
00
1,
1i
0}
1~
1Z
1Q
13
#640000
0!
0)
0(
0'
0&
0%
1$
0O
0E
0D
0C
0B
0A
1@
1r
0n
0j
0f
0b
0\
0[
1]
0c
1d
1g
0h
0l
1p
0s
1t
1u
0t
1q
0m
0i
1h
0k
1e
0d
1_
0e
1l
1o
1i
0u
0p
1m
0q
#650000
1!
1O
1[
0#!
0"!
0!!
1|
0~
1x
0{
1t
1w
0x
1u
0|
1y
1}
1~
0Y
0X
0W
0}
0~
0y
0F
0G
0H
0Z
0,
0+
0*
0Q
1Z
03
1Q
0Z
13
0Q
03
#660000
0!
1)
0O
1E
1\
0[
0]
1c
1d
0_
1e
#670000
1!
1O
1[
0(!
1'!
1#!
0t
0w
0d
0g
1]
0c
1d
1g
1_
0h
1k
0e
1x
0u
1W
1S
0R
1y
0l
0o
0i
1h
0k
1e
1H
1L
0M
01
10
1,
1l
1o
1i
1p
0m
1q
0p
1m
0q
#680000
0!
0)
1(
0O
0E
1D
1b
0\
0[
0]
0d
0g
0h
1k
0e
0_
0l
0o
0i
1p
0m
1q
#690000
1!
1O
1[
0'!
0&!
0%!
1$!
0#!
1"!
0x
1{
1t
1w
0p
1s
1l
1o
1h
0k
1d
1g
0h
1e
0l
1i
1p
0s
1m
0t
0w
0q
1x
0{
1u
1|
0y
1X
0W
1V
0U
0T
0S
1}
1~
0|
1y
0x
1{
0u
1t
1w
1q
0m
0i
1G
0H
1I
0J
0K
0L
00
0/
0.
1-
0,
1+
1x
0{
1u
1|
0y
0}
0~
1}
1~
0|
1y
1Z
0}
0~
1Q
0Z
13
0Q
1Z
03
1Q
0Z
13
0Q
03
#700000
0!
1)
0O
1E
1\
0[
1]
1_
#710000
1!
1O
1[
1(!
1'!
1#!
0t
0w
0d
0g
0]
1c
1d
0_
1h
0e
0x
1{
0u
1W
1S
1R
1|
0y
1i
1e
1H
1L
1M
11
10
1,
1}
1~
1Z
1Q
13
#720000
0!
0)
0(
1'
0O
0E
0D
1C
1f
0b
0\
0[
1]
0c
0d
0h
1k
1l
0i
0e
1d
1g
1_
1h
0k
1e
1m
0l
1i
0m
#730000
1!
1O
1[
1&!
0#!
0"!
1!!
0|
0~
1x
0{
1t
1w
0h
1k
1l
0i
0x
1u
1|
1y
0}
1~
1Y
0X
0W
1T
1}
0~
0y
1m
1F
0G
0H
1K
0Z
1/
0,
0+
1*
0Q
1Z
03
1Q
0Z
13
0Q
03
#740000
0!
1)
0O
1E
1\
0[
0]
1c
0d
0g
0_
1h
0e
1i
#750000
1!
1O
1[
0(!
0'!
1%!
1#!
0t
0w
0l
0o
1d
1g
1]
0c
0d
1_
0h
1e
0p
1s
0m
1x
0u
1W
1U
0S
0R
1y
1t
0q
0i
0e
1H
1J
0L
0M
01
00
1.
1,
1u
#760000
0!
0)
1(
0O
0E
1D
1b
0\
0[
0]
1d
1e
0_
#770000
1!
1O
1[
1'!
0&!
0%!
0$!
1"!
0x
1{
1p
0s
1l
1o
1h
0k
0d
0g
0h
1k
0e
0l
1i
0p
1m
0t
1q
0|
0y
1X
0V
0U
0T
1S
0}
1~
0u
0q
0m
1l
0i
1G
0I
0J
0K
1L
10
0/
0.
0-
1+
1m
1Z
1Q
13
#780000
0!
1)
0O
1E
1\
0[
1]
1_
#790000
1!
1O
1[
1(!
0'!
1%!
0#!
0"!
0!!
1|
0~
1x
0{
1t
1w
0l
0o
1d
1g
0]
1c
0d
0g
0_
1h
0k
1e
1p
0m
0x
1u
0|
1y
1}
1~
0Y
0X
0W
1U
0S
1R
0}
0~
0y
1q
1l
1o
1i
0h
1k
0e
0F
0G
0H
1J
0L
1M
0Z
11
00
1.
0,
0+
0*
0l
0o
0i
0p
1m
0Q
1Z
03
0q
1p
0m
1Q
0Z
13
1q
0Q
03
#800000
0!
0)
0(
0'
1&
0O
0E
0D
0C
1B
1j
0f
0b
0\
0[
1]
0c
1d
1g
1h
0k
1l
1m
0l
1i
0h
1e
0d
1_
0e
0i
0m
#810000
1!
1O
1[
0%!
1$!
1#!
0t
0w
0p
1s
1l
1o
1p
0s
1m
1t
0q
1x
0u
1W
1V
0U
1y
1u
0t
1q
1H
1I
0J
0.
1-
1,
0u
#820000
0!
1)
0O
1E
1\
0[
0]
1c
1d
0_
1e
#830000
1!
1O
1[
0(!
1'!
1%!
0#!
1"!
0x
1{
1t
1w
0l
0o
0d
0g
1]
0c
1d
1g
1_
1h
0e
0p
1s
0m
1x
0{
1u
1|
0y
1X
0W
1U
1S
0R
1}
1~
0|
1y
0t
0w
0q
1i
0h
1e
1G
0H
1J
1L
0M
01
10
1.
0,
1+
0i
0x
1{
0u
0}
0~
1|
0y
1Z
1}
1~
1Q
0Z
13
0Q
03
1Z
1Q
13
#840000
0!
0)
1(
0O
0E
1D
1b
0\
0[
0]
0d
0g
1h
0e
0_
1i
#850000
1!
1O
1[
0'!
1&!
0%!
0$!
0"!
1!!
0|
0~
1x
0{
1p
0s
1l
1o
0h
1k
1d
1g
1h
0k
1e
0l
0o
0i
0p
1m
1t
1w
1q
1|
1y
0}
1~
1Y
0X
0V
0U
1T
0S
1}
0~
0x
1u
0q
1p
0m
1l
1o
1i
1F
0G
0I
0J
1K
0L
0Z
00
1/
0.
0-
0+
1*
0p
1m
1q
0y
0Q
1Z
03
0q
1Q
0Z
13
0Q
03
#860000
0!
1)
0O
1E
1\
0[
1]
1_
#870000
1!
1O
1[
1(!
1'!
1%!
1#!
0t
0w
0l
0o
0d
0g
0]
1c
1d
0_
0h
1k
0e
1p
0m
1x
0u
1W
1U
1S
1R
1y
1q
1l
0i
1e
1H
1J
1L
1M
11
10
1.
1,
1m
#880000
0!
0)
0(
1'
0O
0E
0D
1C
1f
0b
0\
0[
1]
0c
0d
1h
1i
0e
1d
1g
1_
0h
1e
0i
#890000
1!
1O
1[
0&!
1$!
0#!
1"!
0x
1{
1t
1w
0p
1s
1h
0k
0l
1i
0t
0w
0q
1x
0{
1u
0|
0y
1X
0W
1V
0T
0}
1~
1|
1y
0x
1{
0u
0m
1G
0H
1I
0K
0/
1-
0,
1+
0|
0y
1}
0~
0}
1~
1Z
1Q
0Z
13
0Q
1Z
03
1Q
13
#900000
0!
1)
0O
1E
1\
0[
0]
1c
0d
0g
0_
0h
1k
0e
1l
0i
1m
#910000
1!
1O
1[
0(!
0'!
0$!
0"!
0!!
1|
0~
1x
0{
1p
0s
1d
1g
1]
0c
0d
1_
1h
0k
1e
1t
1w
1q
0|
1y
1}
1~
0Y
0X
0V
0S
0R
0}
0~
0x
1u
0l
1i
0e
0F
0G
0I
0L
0M
0Z
01
00
0-
0+
0*
0m
0y
0Q
1Z
03
1Q
0Z
13
0Q
03
#920000
0!
0)
1(
0O
0E
1D
1b
0\
0[
0]
1d
1e
0_
#930000
1!
1O
1[
1'!
1&!
0%!
1$!
1#!
0t
0w
0p
1s
1l
1o
0h
1k
0d
0g
1h
0e
0l
0o
0i
1p
0s
1m
1t
0q
1x
0u
1W
1V
0U
1T
1S
1y
1u
0t
1q
0p
1s
0m
1i
1H
1I
0J
1K
1L
10
1/
0.
1-
1,
1t
0q
0u
1u
#940000
0!
1)
0O
1E
1\
0[
1]
1_
#950000
1!
1O
1[
1(!
0'!
0$!
1"!
0x
1{
1p
0s
1d
1g
0]
1c
0d
0g
0_
0h
1e
0t
1q
1|
0y
1X
0V
0S
1R
1}
1~
0u
0i
1h
0e
1G
0I
0L
1M
11
00
0-
1+
1i
1Z
1Q
13
#960000
0!
0)
0(
0'
0&
1%
0O
0E
0D
0C
0B
1A
1n
0j
0f
0b
0\
0[
1]
0c
1d
1g
0h
1l
1o
0p
1s
1t
0q
1p
0s
1m
0i
1h
0k
1e
0d
1_
0e
0l
1i
0t
1q
1u
0u
0m
#970000
1!
1O
1[
1$!
0#!
0"!
1!!
0|
0~
1x
0{
1t
1w
0p
1s
0t
0w
0q
0x
1u
1|
1y
0}
1~
1Y
0X
0W
1V
1}
0~
0y
1x
0u
1F
0G
0H
1I
0Z
1-
0,
0+
1*
1y
0Q
1Z
03
1Q
0Z
13
0Q
03
#980000
0!
1)
0O
1E
1\
0[
0]
1c
1d
0_
1e
#990000
1!
1O
1[
0(!
1'!
0$!
1"!
0x
1{
1p
0s
0d
0g
1]
0c
1d
1g
1_
0h
1k
0e
1t
1w
1q
0|
0y
1X
0V
1S
0R
0}
1~
1x
0{
1u
1l
0i
1h
0k
1e
1G
0I
1L
0M
01
10
0-
1+
0l
1i
1m
1|
1y
1}
0~
0m
1Z
1Q
13
0Z
0Q
03
